Division,WeightClassKg,Place,Name,Team,BodyweightKg,Best3SquatKg,Best3BenchKg,Best3DeadliftKg,TotalKg,Equipment,Event,Sex
Boys,56,1,Jason Nguyen,Oakridge School,52.62,151.95,83.91,161.03,396.89,Single-ply,SBD,M
Boys,56,2,Nolan Roberts,Dallas Highland Park,55.79,113.4,68.04,142.88,324.32,Single-ply,SBD,M
Boys,56,3,Sahir Alibhai,Oakridge School,52.62,108.86,68.04,113.4,290.3,Single-ply,SBD,M
Boys,60,1,Connor Thomas,Dallas Jesuit,57.61,97.52,58.97,115.67,272.16,Single-ply,SBD,M
Boys,60,2,Alexis Catarino,Richardson Berkner,56.25,90.72,52.16,106.59,249.48,Single-ply,SBD,M
Boys,60,DQ,Zach Brooks,Lucas Lovejoy,58.06,,,,,Single-ply,SBD,M
Boys,67.5,1,Daniel Van Amerongen,Dallas Jesuit,61.69,140.61,86.18,156.49,383.29,Single-ply,SBD,M
Boys,67.5,2,Chris Silva,Richardson Pearce,64.86,147.42,86.18,149.69,383.29,Single-ply,SBD,M
Boys,67.5,3,Bobby Gurerro,Richardson Pearce,66.68,129.27,97.52,136.08,362.87,Single-ply,SBD,M
Boys,67.5,4,Tyrone Reeves,Richardson Berkner,64.41,102.06,70.31,151.95,324.32,Single-ply,SBD,M
Boys,67.5,5,Kevin Dick,Coppell,66.68,120.2,68.04,124.74,312.98,Single-ply,SBD,M
Boys,67.5,6,Brandt Brock,Dallas Highland Park,65.77,72.57,70.31,124.74,267.62,Single-ply,SBD,M
Boys,75,1,Stephen Mancillas,Dallas Jesuit,73.48,213.19,127.01,197.31,537.51,Single-ply,SBD,M
Boys,75,2,Kailon Fisher,Richardson Berkner,74.84,156.49,102.06,204.12,462.66,Single-ply,SBD,M
Boys,75,3,James Herring,Dallas Highland Park,71.21,183.7,90.72,181.44,455.86,Single-ply,SBD,M
Boys,75,4,Brittain Skinner,Richardson Pearce,70.31,165.56,95.25,163.29,424.11,Single-ply,SBD,M
Boys,75,5,Austin Petersen,Richardson Pearce,68.49,147.42,92.99,161.03,401.43,Single-ply,SBD,M
Boys,75,6,Alan Habashy,Plano John Paul II,71.21,111.13,77.11,158.76,347,Single-ply,SBD,M
Boys,75,7,Kevin Vay,Richardson Berkner,68.95,133.81,74.84,136.08,344.73,Single-ply,SBD,M
Boys,75,8,Owen Dunston,Dallas Highland Park,74.84,108.86,68.04,117.93,294.84,Single-ply,SBD,M
Boys,75,9,Mason Mckinney,Dallas Highland Park,71.67,111.13,52.16,115.67,278.96,Single-ply,SBD,M
Boys,75,DQ,Walker French,Dallas Highland Park,71.67,,95.25,,,Single-ply,SBD,M
Boys,75,DQ,Alex Walzel,Dallas Highland Park,74.84,183.7,,201.85,,Single-ply,SBD,M
Boys,75,DQ,Matt Kallas,Plano John Paul II,72.12,120.2,61.23,,,Single-ply,SBD,M
Boys,75,DQ,Abel Gherbrenaniam,Plano John Paul II,71.67,,52.16,113.4,,Single-ply,SBD,M
Boys,82.5,1,Banahene Glover,Oakridge School,77.34,215.46,149.69,181.44,546.58,Single-ply,SBD,M
Boys,82.5,2,Zac Folts,Dallas Highland Park,79.38,176.9,129.27,204.12,510.29,Single-ply,SBD,M
Boys,82.5,3,Marshall Ballard,Dallas Highland Park,80.29,161.03,81.65,181.44,424.11,Single-ply,SBD,M
Boys,82.5,4,Lee Gaines,Oakridge School,80.88,124.74,88.45,204.12,417.3,Single-ply,SBD,M
Boys,82.5,5,Ryan Jones,Coppell,81.65,158.76,102.06,154.22,415.04,Single-ply,SBD,M
Boys,82.5,6,Hudson Wood,Dallas Highland Park,77.11,145.15,83.91,167.83,396.89,Single-ply,SBD,M
Boys,82.5,7,Trusten Micheli,Coppell,81.19,140.61,90.72,163.29,394.63,Single-ply,SBD,M
Boys,82.5,8,Rodrigo Delagarza,Coppell,81.51,147.42,92.99,151.95,392.36,Single-ply,SBD,M
Boys,82.5,10,Ryan Webb,Dallas Highland Park,76.66,136.08,63.5,142.88,342.46,Single-ply,SBD,M
Boys,82.5,11,Sean Sachnik,Plano John Paul II,77.97,97.52,77.11,127.01,301.64,Single-ply,SBD,M
Boys,82.5,DQ,Luke Lochausen,Dallas Highland Park,79.83,133.81,79.38,140.61,,Single-ply,SBD,M
Boys,82.5,DQ,Hudson Soetenga,Dallas Highland Park,80.74,113.4,74.84,127.01,,Single-ply,SBD,M
Boys,82.5,DQ,James Lightborne,Dallas Highland Park,78.47,,90.72,158.76,,Single-ply,SBD,M
Boys,90,1,Evan Jackson,Dallas Jesuit,85.96,226.8,120.2,215.46,562.45,Single-ply,SBD,M
Boys,90,2,Joseph Stautner,Dallas Jesuit,89.31,206.38,129.27,208.65,544.31,Single-ply,SBD,M
Boys,90,3,Max Dooley,Lucas Lovejoy,86.27,183.7,108.86,185.97,478.54,Single-ply,SBD,M
Boys,90,4,Christian Bennett,Richardson Berkner,87.63,183.7,106.59,188.24,478.54,Single-ply,SBD,M
Boys,90,5,Darian Andrews,Richardson Berkner,88.77,156.49,108.86,188.24,453.59,Single-ply,SBD,M
Boys,90,6,Nick Tran,Oakridge School,86.95,170.1,81.65,170.1,421.84,Single-ply,SBD,M
Boys,90,7,Brock Prengler,Lucas Lovejoy,84.05,170.1,97.52,149.69,417.3,Single-ply,SBD,M
Boys,90,8,David Anderson #3,Plano John Paul II,88.54,140.61,104.33,165.56,410.5,Single-ply,SBD,M
Boys,90,9,Andrew White,Oakridge School,86.18,158.76,90.72,158.76,408.23,Single-ply,SBD,M
Boys,90,9,Daren Butler,Richardson Pearce,82.28,136.08,81.65,145.15,362.87,Single-ply,SBD,M
Boys,90,10,Chris Fox,Oakridge School,87.04,165.56,77.11,165.56,408.23,Single-ply,SBD,M
Boys,90,11,Robert Richardson,Dallas Highland Park,86.18,149.69,92.99,158.76,401.43,Single-ply,SBD,M
Boys,90,12,Jon Jurgovan,Dallas Highland Park,85.28,154.22,81.65,154.22,390.09,Single-ply,SBD,M
Boys,90,13,John Lewis,Richardson Berkner,88.59,115.67,83.91,165.56,365.14,Single-ply,SBD,M
Boys,90,14,Carson Burch,Coppell,88.27,127.01,70.31,136.08,333.39,Single-ply,SBD,M
Boys,90,15,Will Rhodes,Dallas Highland Park,82.55,108.86,70.31,138.35,317.51,Single-ply,SBD,M
Boys,90,16,Hank Fogle,Plano John Paul II,83.64,108.86,72.57,136.08,317.51,Single-ply,SBD,M
Boys,90,DQ,Jaylon Wallis,Richardson Berkner,89.13,158.76,,183.7,,Single-ply,SBD,M
Boys,100,1,Ryan Brooks,Dallas Jesuit,98.38,283.5,181.44,247.21,712.14,Single-ply,SBD,M
Boys,100,2,Bennett Brock,Dallas Highland Park,95.25,233.6,140.61,235.87,610.08,Single-ply,SBD,M
Boys,100,3,Jordan Odulio,Dallas Jesuit,91.76,215.46,136.08,226.8,578.33,Single-ply,SBD,M
Boys,100,4,Kade Ahsley,Lucas Lovejoy,92.17,215.46,154.22,195.04,564.72,Single-ply,SBD,M
Boys,100,5,Luke Blanton,Dallas Highland Park,97.52,195.04,129.27,219.99,544.31,Single-ply,SBD,M
Boys,100,6,Jack Mulderring,Plano John Paul II,94.57,172.37,113.4,219.99,505.76,Single-ply,SBD,M
Boys,100,7,Ben Boudrraux,Dallas Highland Park,98.88,195.04,106.59,192.78,494.42,Single-ply,SBD,M
Boys,100,8,Matt Gahm,Dallas Highland Park,97.07,181.44,115.67,195.04,492.15,Single-ply,SBD,M
Boys,100,9,Noble Nash,Dallas Highland Park,93.44,190.51,104.33,192.78,487.61,Single-ply,SBD,M
Boys,100,10,Sergio Arriaga,Lucas Lovejoy,94.94,185.97,104.33,183.7,474,Single-ply,SBD,M
Boys,100,11,Jack Huffman,Richardson Berkner,96.98,170.1,102.06,183.7,455.86,Single-ply,SBD,M
Boys,100,12,JR Barker,Coppell,95.93,156.49,99.79,181.44,437.72,Single-ply,SBD,M
Boys,100,13,Bolton Corwin,Dallas Highland Park,92.99,172.37,79.38,172.37,424.11,Single-ply,SBD,M
Boys,100,14,Matt Larson,Plano John Paul II,94.03,136.08,68.04,136.08,340.19,Single-ply,SBD,M
Boys,100,DQ,Tyler Kilgus,Dallas Highland Park,93.44,117.93,65.77,131.54,,Single-ply,SBD,M
Boys,100,DQ,Ryan Butz,Dallas Highland Park,91.63,154.22,81.65,156.49,,Single-ply,SBD,M
Boys,100,DQ,Calvin Kean,Dallas Highland Park,91.17,142.88,90.72,154.22,,Single-ply,SBD,M
Boys,100,DQ,Ryan Coxe,Dallas Highland Park,93.44,142.88,106.59,,,Single-ply,SBD,M
Boys,110,1,Andrew Miskell,Dallas Jesuit,100.92,213.19,120.2,226.8,560.19,Single-ply,SBD,M
Boys,110,2,Hassan Badawy,Richardson Berkner,107.27,215.46,117.93,204.12,537.51,Single-ply,SBD,M
Boys,110,3,Jose Ortiz,Richardson Pearce,109.36,197.31,115.67,190.51,503.49,Single-ply,SBD,M
Boys,110,4,Lucas Anderson,Lucas Lovejoy,109.72,188.24,117.93,183.7,489.88,Single-ply,SBD,M
Boys,110,5,Grey Giddens,Dallas Highland Park,102.06,181.44,102.06,192.78,476.27,Single-ply,SBD,M
Boys,110,DQ,Johnny Alfaro,Richardson Berkner,109.13,226.8,108.86,,,Single-ply,SBD,M
Boys,110,DQ,Harrison Murski,Dallas Highland Park,102.06,,115.67,,,Single-ply,SBD,M
Boys,110,DQ,Turner Coxe,Dallas Highland Park,105.69,,124.74,,,Single-ply,SBD,M
Boys,110,DQ,Anthony Meyers,Richardson Pearce,108.59,,129.27,226.8,,Single-ply,SBD,M
Boys,110,DQ,Patrick Ancelin,Richardson Pearce,107.05,,108.86,192.78,,Single-ply,SBD,M
Boys,125,1,Jack Davis #1,Richardson Pearce,124.51,208.65,156.49,235.87,601.01,Single-ply,SBD,M
Boys,125,2,Giff Giffin,Dallas Highland Park,111.13,161.03,90.72,190.51,442.25,Single-ply,SBD,M
Boys,125,3,Chris Schumacher,Plano John Paul II,120.43,142.88,83.91,167.83,394.63,Single-ply,SBD,M
Boys,125+,1,Thomas Shellmire,Dallas Highland Park,129.73,215.46,113.4,208.65,537.51,Single-ply,SBD,M
Boys,125+,2,Hunter May,Richardson Pearce,127.91,181.44,106.59,165.56,453.59,Single-ply,SBD,M
