Division,WeightClassKg,Place,Name,Team,BodyweightKg,Best3SquatKg,Best3BenchKg,Best3DeadliftKg,TotalKg,Equipment,Event,Sex
Boys,52,1,Max Castelli,Belton,51.48,113.4,65.77,117.93,297.1,Single-ply,SBD,M
Boys,52,2,James Langerman,Waco Midway,43.64,45.36,31.75,77.11,154.22,Single-ply,SBD,M
Boys,56,1,Travis Potter,Gatesville,54.88,145.15,70.31,145.15,360.61,Single-ply,SBD,M
Boys,56,2,Avery Rodriguez,Temple,55.75,113.4,79.38,154.22,347,Single-ply,SBD,M
Boys,56,3,Xavier McCarter,Copperas Cove,52.84,120.2,74.84,131.54,326.59,Single-ply,SBD,M
Boys,56,4,Xavier Aviles,Temple,55.29,95.25,61.23,113.4,269.89,Single-ply,SBD,M
Boys,56,5,Isiah Haines,Copperas Cove,54.75,90.72,47.63,117.93,256.28,Single-ply,SBD,M
Boys,60,1,Brent Wheeler,Belton,56.97,127.01,72.57,122.47,322.05,Single-ply,SBD,M
Boys,60,2,Jaylen Montgomery,Waco Midway,58.6,113.4,79.38,122.47,315.25,Single-ply,SBD,M
Boys,60,3,Santi Piedrahita,Belton,58.47,113.4,65.77,127.01,306.17,Single-ply,SBD,M
Boys,60,4,Alain Rabarisoamihono,Temple,57.15,90.72,68.04,138.35,297.1,Single-ply,SBD,M
Boys,60,5,Colten Kirkpatrick,Waco Midway,59.24,108.86,63.5,124.74,297.1,Single-ply,SBD,M
Boys,67.5,1,Dwight Roberts,Temple,64.23,181.44,111.13,192.78,485.34,Single-ply,SBD,M
Boys,67.5,2,Ethan Pierce,Rogers,65.63,192.78,106.59,185.97,485.34,Single-ply,SBD,M
Boys,67.5,3,Brendan Hunt,Belton,66.68,188.24,79.38,174.63,442.25,Single-ply,SBD,M
Boys,67.5,4,Christian Castillo,Belton,64.14,170.1,83.91,183.7,437.72,Single-ply,SBD,M
Boys,67.5,5,Trestan Hudnall,Killeen Ellison,64.59,142.88,108.86,165.56,417.3,Single-ply,SBD,M
Boys,67.5,6,Jaylun Taylor,Gatesville,65.68,161.03,83.91,158.76,403.7,Single-ply,SBD,M
Boys,67.5,7,Jake Wiseman,Waco Midway,65.14,158.76,77.11,158.76,394.63,Single-ply,SBD,M
Boys,67.5,8,Johnathon Fuselier,Copperas Cove,66.77,145.15,92.99,147.42,385.55,Single-ply,SBD,M
Boys,67.5,9,Marshall Conde,Little River Academy,67.04,131.54,90.72,158.76,381.02,Single-ply,SBD,M
Boys,67.5,10,Cameron Spruill,Copperas Cove,63.78,127.01,86.18,165.56,378.75,Single-ply,SBD,M
Boys,67.5,11,Gavin Freeman,Little River Academy,62.19,131.54,83.91,161.03,376.48,Single-ply,SBD,M
Boys,67.5,DQ,Cameron West,Copperas Cove,61.55,124.74,68.04,,,Single-ply,SBD,M
Boys,75,1,Taylor Sands,Little River Academy,74.75,192.78,122.47,204.12,519.36,Single-ply,SBD,M
Boys,75,2,Devayse Little,Belton,74.71,204.12,108.86,201.85,514.83,Single-ply,SBD,M
Boys,75,3,Kyleland Sauls,Temple,73.98,170.1,111.13,197.31,478.54,Single-ply,SBD,M
Boys,75,4,Craig Dawson,Waco Midway,69.94,204.12,104.33,167.83,476.27,Single-ply,SBD,M
Boys,75,5,Treyton Bates,Little River Academy,74.34,156.49,104.33,183.7,444.52,Single-ply,SBD,M
Boys,75,6,Angelo Sibille,Belton,73.89,151.95,86.18,167.83,405.97,Single-ply,SBD,M
Boys,75,7,Levi Smith,Copperas Cove,72.57,145.15,88.45,161.03,394.63,Single-ply,SBD,M
Boys,75,8,Dylan Doty,Copperas Cove,69.04,120.2,81.65,138.35,340.19,Single-ply,SBD,M
Boys,75,9,Joseph Harrison,Copperas Cove,74.8,122.47,68.04,147.42,337.93,Single-ply,SBD,M
Boys,75,DQ,Kyle Telg,Waco Midway,70.17,102.06,,,,Single-ply,SBD,M
Boys,82.5,1,Hunter Douzat,Little River Academy,81.51,242.67,165.56,231.33,639.57,Single-ply,SBD,M
Boys,82.5,2,Jacob Lewallen,Belton,79.65,219.99,111.13,231.33,562.45,Single-ply,SBD,M
Boys,82.5,3,Luke Whiteley,Little River Academy,80.83,208.65,136.08,201.85,546.58,Single-ply,SBD,M
Boys,82.5,4,Chandler Vela,Belton,81.15,197.31,120.2,190.51,508.02,Single-ply,SBD,M
Boys,82.5,5,Chet Ligon,Belton,81.78,197.31,111.13,183.7,492.15,Single-ply,SBD,M
Boys,82.5,6,Robert Nicholas,Killeen Ellison,78.65,165.56,99.79,204.12,469.47,Single-ply,SBD,M
Boys,82.5,7,Carson Schurr,Belton,77.88,158.76,97.52,181.44,437.72,Single-ply,SBD,M
Boys,82.5,8,Colton Jung,Killeen Ellison,81.51,154.22,90.72,181.44,426.38,Single-ply,SBD,M
Boys,82.5,9,Joe Shuler,Belton,80.38,167.83,86.18,163.29,417.3,Single-ply,SBD,M
Boys,82.5,10,Quincy Marshall,Temple,79.47,133.81,74.84,136.08,344.73,Single-ply,SBD,M
Boys,82.5,11,Daniel Ford,Waco Midway,79.56,133.81,72.57,136.08,342.46,Single-ply,SBD,M
Boys,82.5,12,Jack Shumaker,Copperas Cove,79.33,120.2,83.91,136.08,340.19,Single-ply,SBD,M
Boys,82.5,DQ,Malik Stoutamire,Temple,75.75,,,,,Single-ply,SBD,M
Boys,90,1,Vincent Wilson,Rogers,89.45,219.99,149.69,199.58,569.26,Single-ply,SBD,M
Boys,90,2,Nico Keaton,Rogers,86.73,192.78,122.47,195.04,510.29,Single-ply,SBD,M
Boys,90,3,Mitchell Dunahoo,Belton,84.78,172.37,106.59,183.7,462.66,Single-ply,SBD,M
Boys,90,4,Kristofer Melgar,Killeen Ellison,89.63,165.56,95.25,183.7,444.52,Single-ply,SBD,M
Boys,90,5,Chris Hooper,Temple,86.18,156.49,102.06,181.44,439.98,Single-ply,SBD,M
Boys,90,6,Cedric Carter,Temple,87.77,147.42,106.59,170.1,424.11,Single-ply,SBD,M
Boys,90,7,Will Howard,Temple,85.68,147.42,81.65,181.44,410.5,Single-ply,SBD,M
Boys,90,8,John Flores,Waco Midway,85.05,133.81,68.04,147.42,349.27,Single-ply,SBD,M
Boys,100,1,Alex Ramirez,Copperas Cove,99.11,224.53,120.2,265.35,610.08,Single-ply,SBD,M
Boys,100,2,Ashad Matthews,Temple,97.84,204.12,151.95,215.46,571.53,Single-ply,SBD,M
Boys,100,3,Aubrey Kelly,Killeen Ellison,96.75,215.46,92.99,219.99,528.44,Single-ply,SBD,M
Boys,100,4,Jazerian Faulkner,Temple,99.79,183.7,136.08,188.24,508.02,Single-ply,SBD,M
Boys,100,5,Justin Buuck,Belton,91.08,170.1,117.93,190.51,478.54,Single-ply,SBD,M
Boys,100,6,Devon Taplin,Belton,95.07,170.1,106.59,183.7,460.4,Single-ply,SBD,M
Boys,100,7,Xavier White,Temple,98.38,179.17,111.13,170.1,460.4,Single-ply,SBD,M
Boys,100,8,Garrett Orange,Belton,91.99,158.76,90.72,161.03,410.5,Single-ply,SBD,M
Boys,100,9,Henry Lamm,Waco Midway,95.25,156.49,79.38,170.1,405.97,Single-ply,SBD,M
Boys,100,10,Andrew Bullock,Waco Midway,91.26,156.49,,151.95,308.44,Single-ply,SD,M
Boys,100,DQ,Michael Griego,Gatesville,94.17,172.37,,,,Single-ply,SBD,M
Boys,100,DQ,Connor Laughren,Gatesville,95.35,,,,,Single-ply,SBD,M
Boys,100,DQ,John Harvey,Belton,93.85,204.12,,,,Single-ply,SBD,M
Boys,100,DQ,Marvin Moore,Copperas Cove,96.21,147.42,99.79,,,Single-ply,SBD,M
Boys,100,DQ,Thomas Barnhill,Waco Midway,97.84,122.47,,,,Single-ply,SBD,M
Boys,110,1,Chandler Strmiska,Little River Academy,105.19,244.94,190.51,249.48,684.92,Single-ply,SBD,M
Boys,110,2,Arturo Jaimes,Belton,107.05,251.74,140.61,249.48,641.83,Single-ply,SBD,M
Boys,110,3,Antares Gillespie,Killeen Ellison,105.32,188.24,106.59,217.72,512.56,Single-ply,SBD,M
Boys,110,4,Veshawn Shellman,Killeen Ellison,107.77,183.7,108.86,217.72,510.29,Single-ply,SBD,M
Boys,110,5,Jesse Flores,Temple,108.91,206.38,115.67,181.44,503.49,Single-ply,SBD,M
Boys,110,6,Jacob Snoddy,Gatesville,105.46,176.9,115.67,176.9,469.47,Single-ply,SBD,M
Boys,110,7,Josh Smith #11,Copperas Cove,103.1,174.63,111.13,176.9,462.66,Single-ply,SBD,M
Boys,110,8,Sammy Rodriguez,Temple,100.38,165.56,95.25,176.9,437.72,Single-ply,SBD,M
Boys,110,9,Zakary Richards,Waco Midway,105.23,163.29,86.18,158.76,408.23,Single-ply,SBD,M
Boys,110,10,John Montemayor,Waco Midway,107.91,145.15,95.25,147.42,387.82,Single-ply,SBD,M
Boys,110,11,Daniel Phillips,Waco Midway,103.96,136.08,92.99,142.88,371.95,Single-ply,SBD,M
Boys,110,DQ,Justin Rew,Little River Academy,103.28,,,,,Single-ply,SBD,M
Boys,110,DQ,Delray Judd,Copperas Cove,108.18,136.08,,,,Single-ply,SBD,M
Boys,110,DQ,Keil Parkhurst,Copperas Cove,107.64,142.88,,,,Single-ply,SBD,M
Boys,125,1,Bailey Adair,Gatesville,124.69,310.71,190.51,192.78,694,Single-ply,SBD,M
Boys,125,2,Cairi Chansler,Gatesville,110.9,217.72,138.35,192.78,548.85,Single-ply,SBD,M
Boys,125,3,Jim Hitchcock,Gatesville,117.8,204.12,124.74,213.19,542.04,Single-ply,SBD,M
Boys,125,4,Josh Childres,Temple,112.63,195.04,102.06,231.33,528.44,Single-ply,SBD,M
Boys,125,5,Mason Camacho,Temple,121.06,183.7,102.06,188.24,474,Single-ply,SBD,M
Boys,125,6,Sidney Sherwood,Belton,119.88,199.58,122.47,142.88,464.93,Single-ply,SBD,M
Boys,125,7,Zarek Roberts,Killeen Ellison,113.49,165.56,97.52,181.44,444.52,Single-ply,SBD,M
Boys,125,8,Tj Franklin,Temple,115.39,115.67,122.47,192.78,430.91,Single-ply,SBD,M
Boys,125+,1,Phillip Haskins,Temple,133.13,260.82,142.88,226.8,630.49,Single-ply,SBD,M
Boys,125+,2,Keith Jackson III,Killeen Ellison,165.7,249.48,131.54,226.8,607.81,Single-ply,SBD,M
Boys,125+,3,Daizion Carroll,Waco Midway,142.25,235.87,124.74,195.04,555.65,Single-ply,SBD,M
Boys,125+,4,Jordan Sharp,Waco Midway,147.28,226.8,122.47,181.44,530.7,Single-ply,SBD,M
Boys,125+,5,Aarron Shanahan,Copperas Cove,142.07,199.58,102.06,219.99,521.63,Single-ply,SBD,M
Boys,125+,6,Owen Duffied,Little River Academy,134.13,174.63,138.35,161.03,474,Single-ply,SBD,M
Boys,125+,7,Hayden Frinke,Little River Academy,126.55,167.83,122.47,161.03,451.32,Single-ply,SBD,M
Boys,125+,8,Ethan Strong,Temple,144.29,181.44,102.06,165.56,449.06,Single-ply,SBD,M
Boys,125+,9,Chapman Rowe,Killeen Ellison,135.85,170.1,92.99,183.7,446.79,Single-ply,SBD,M
Boys,125+,10,Josh Echeverria,Waco Midway,131.31,163.29,95.25,181.44,439.98,Single-ply,SBD,M
Boys,125+,11,Zane Stephens,Copperas Cove,127.37,156.49,88.45,188.24,433.18,Single-ply,SBD,M
Boys,125+,12,Clancey Lawhorn,Gatesville,133.58,192.78,86.18,142.88,421.84,Single-ply,SBD,M
Boys,125+,13,Chris Brown,Belton,178.72,156.49,90.72,172.37,419.57,Single-ply,SBD,M
Boys,125+,14,Zachary Mellinger,Waco Midway,131.59,149.69,77.11,145.15,371.95,Single-ply,SBD,M
Boys,125+,15,Robert Ursua,Waco Midway,128.91,117.93,72.57,136.08,326.59,Single-ply,SBD,M
Boys,,DQ,Cameron Falk,Copperas Cove,,,,,,Single-ply,SBD,M
Boys,,DQ,Edward Eakin,Killeen Ellison,,,,,,Single-ply,SBD,M
Boys,,DQ,Wyatt Tackett,Gatesville,,,,,,Single-ply,SBD,M
Boys,,DQ,Eliazar Venegas,Waco Midway,,,,,,Single-ply,SBD,M
Boys,,DQ,Mason Johnson,Gatesville,,,,,,Single-ply,SBD,M
Boys,,DQ,Peyton Hodge,Waco Midway,,,,,,Single-ply,SBD,M
Boys,,DQ,Harrison Hartline,Waco Midway,,,,,,Single-ply,SBD,M
Boys,,DQ,Zach Solano,Rogers,,,,,,Single-ply,SBD,M
