Place,Name,BodyweightKg,Squat1Kg,Squat2Kg,Squat3Kg,Best3SquatKg,Squat4Kg,Bench1Kg,Bench2Kg,Bench3Kg,Best3BenchKg,Bench4Kg,Deadlift1Kg,Deadlift2Kg,Deadlift3Kg,Best3DeadliftKg,Deadlift4Kg,TotalKg,WeightClassKg,Sex,CyrillicName,BirthYear,Event,Equipment,Division
1,Vitaliy Blyk,52,105,115,122.5,122.5,,90,-100,100,100,,160,-170,-170,160,,382.5,52,M,Віталій Блик,1972,SBD,Single-ply,Open
2,Sergiy Latyshev,52,105,115,120,120,,75,82.5,-85,82.5,,135,145,-150,145,,347.5,52,M,Сергій Латишев,1977,SBD,Single-ply,Open
1,Oleksandr Gromov,55.55,150,-160,165,165,,97.5,102.5,107.5,107.5,-110.5,170,-180,-180,170,,442.5,56,M,Олександр Громов,1975,SBD,Single-ply,Open
2,Stanislav Apanasovich,54.5,-122.5,122.5,127.5,127.5,,90,97.5,105,105,,125,140,-160,140,,372.5,56,M,Станіслав Апанасович,1962,SBD,Single-ply,Open
1,Stepan Ovcharenko,59.7,190,200,-205,200,,112.5,117.5,-120,117.5,,220,237.5,-245,237.5,,555,60,M,Степан Овчаренко,1976,SBD,Single-ply,Open
2,Sergiy Vatyuk,59.5,200,207.5,-212.5,207.5,,130,138.5,-140,138.5,,205,-215,-215,205,,551,60,M,Сергій Ватюк,1962,SBD,Single-ply,Open
3,Valentyn Zubyk,59,185,195,-200,195,,-95,95,100,100,,175,180,190,190,,485,60,M,Валентин Зубик,1971,SBD,Single-ply,Open
4,Grigoriy Sarkisyan,59.5,-145,145,-160,145,,-100,100,-102.5,100,,190,200,-205,200,,445,60,M,Григорій Саркісян,1963,SBD,Single-ply,Open
5,Andriy Zabozhnyy,60,150,160,-175,160,,80,-85,-85,80,,150,170,-175,170,,410,60,M,Андрій Забожний,1978,SBD,Single-ply,Open
1,Yuriy Vernichenko,66.5,217.5,225,227.5,227.5,,147.5,155,160,160,,220,230,-242.5,230,,617.5,67.5,M,Юрій Верниченко,1962,SBD,Single-ply,Open
2,Mykola Zaguday,67.5,-215,215,225,225,,135,140,142.5,142.5,,245,-255,-255,245,,612.5,67.5,M,Микола Загудай,1962,SBD,Single-ply,Open
3,Valery Kravchenko,66.4,220,225,-230,225,,-150,150,155,155,,220,230,-240,230,,610,67.5,M,Валерій Кравченко,1965,SBD,Single-ply,Open
4,Petro Kravtsov,66,230,-245,-245,230,,142.5,-147.5,-147.5,142.5,,212.5,222.5,230,230,,602.5,67.5,M,,1946,SBD,Single-ply,Open
5,Olexandr Chernyshov,66,185,200,210,210,,155,160,-163,160,,180,195,,195,,565,67.5,M,Олександр Чернишов,1966,SBD,Single-ply,Open
6,Oleg Morenets,67.5,190,200,-210,200,,125,130,135,135,,210,-220,-220,210,,545,67.5,M,Олег Моренець,1967,SBD,Single-ply,Open
7,Volodymyr Ardelyan,67.5,-180,190,-200,190,,115,125,130,130,,205,-215,215,215,,535,67.5,M,Володимир Арделян,1968,SBD,Single-ply,Open
8,Oleg Ocheretniuk,65.3,190,200,205,205,,130,132.5,-135,132.5,,180,185,-197.5,185,,522.5,67.5,M,Олег Очеретнюк,1972,SBD,Single-ply,Open
9,Andriy Krykun,66,170,-180,190,190,,-110,110,125,125,,-180,200,-205,200,,515,67.5,M,Андрій Крикун,1974,SBD,Single-ply,Open
10,Sergiy Odarych,66.5,175,180,185,185,,105,-110,110,110,,190,200,205,205,,500,67.5,M,Сергій Одарич,1970,SBD,Single-ply,Open
1,Sirazhutdin Bazaev,74.3,265,280.5,-290,280.5,,155,162.5,170,170,,270,285,-295,285,,735.5,75,M,Сіражутдін Базаєв,1968,SBD,Single-ply,Open
2,Vasyl' Kurtyak,74.2,242.5,-255,262.5,262.5,,157.5,167.5,-175,167.5,,270,280,-287.5,280,,710,75,M,Василь Куртяк,1961,SBD,Single-ply,Open
3,Vitaliy Krivtsov,74,240,260,270,270,,150,160,-165,160,,230,250,260,260,,690,75,M,Віталій Кривцов,1951,SBD,Single-ply,Open
4,Dmytro Solovyov,73.1,250,260,-270,260,,175,182.5,-187.5,182.5,,245,-260,-260,245,,687.5,75,M,Дмитро Соловйов,1970,SBD,Single-ply,Open
5,Yuriy Pigarev,74.15,220,235,-245,235,,150,160,-165,160,,230,-255,-255,230,,625,75,M,Юрій Пігарєв,1962,SBD,Single-ply,Open
6,Dmytro Romenskyy,74.5,200,210,220,220,,140,145,-150,145,,225,-235,235,235,,600,75,M,Дмитро Роменський,1971,SBD,Single-ply,Open
DQ,Oleksey Dmitriev,75,210,-220,-220,210,,140,145,-150,145,,-230,-230,-230,,,,75,M,Олексій Дмитрієв,1974,SBD,Single-ply,Open
1,Sergiy Romanenko,81.6,280,300,310,310,,150,160,-162.5,160,,270,280,290,290,295.5,760,82.5,M,Сергій Романенко,1972,SBD,Single-ply,Open
2,Oleksandr Slatenkov,82.5,250,270,-290,270,,152.5,175,-192.5,175,,-270,270,292.5,292.5,-308,737.5,82.5,M,Олександр Слатенков,1966,SBD,Single-ply,Open
2,Volodymyr Makhnyuk,82.5,275,-285,,275,,197.5,207.5,-213,207.5,,200,230,255,255,,737.5,82.5,M,Володимир Махнюк,1957,SBD,Single-ply,Open
4,Dmytro Chikin,82,265,280,-290,280,,147.5,155,-157.5,155,,260,270,280,280,,715,82.5,M,Дмитро Чикін,1966,SBD,Single-ply,Open
5,Sergiy Kary,81.6,-240,260,275,275,,150,-160,160,160,,260,-280,,260,,695,82.5,M,Сергій Карий,1973,SBD,Single-ply,Open
6,Oleksandr Pashkevich,82.4,215,225,230,230,,-132.5,-132.5,132.5,132.5,,240,250,262.5,262.5,,625,82.5,M,Олександр Пашкевич,1970,SBD,Single-ply,Open
7,Volodymyr Vodolazhchenko,82.5,210,220,230,230,,130,-140,140,140,,235,-255,-255,235,,605,82.5,M,Володимир Водолажченко,1970,SBD,Single-ply,Open
8,Oleksandr Tsylinchenko,82,220,230,235,235,,130,135,137.5,137.5,,230,-252.5,-252.5,230,,602.5,82.5,M,Олександр Цилінченко,1973,SBD,Single-ply,Open
9,Dmytro Provotorov,82.45,-210,-210,210,210,,140,147.5,-152.5,147.5,,200,-210,-210,200,,557.5,82.5,M,Дмитро Провоторов,1963,SBD,Single-ply,Open
10,Andriy Boyko,82.5,190,-210,-210,190,,-130,130,135,135,,190,200,210,210,,535,82.5,M,Андрій Бойко,1964,SBD,Single-ply,Open
DQ,Mykola Komarov,81.3,-220,-225,-225,,,,,,,,,,,,,,82.5,M,Микола Комаров,1962,SBD,Single-ply,Open
1,Volodymyr Ukhach,90,300,315,320,320,,215,227.5,232.5,232.5,,285,310,315,315,,867.5,90,M,Володимир Ухач,1960,SBD,Single-ply,Open
2,Viktor Ganchur,89.6,310,320,-325,320,,190,195,-197.5,195,,290,,,290,,805,90,M,Віктор Ганчур,1958,SBD,Single-ply,Open
3,Nikolai Kurakin,89.45,270,-290,-300,270,,190,-200,,190,,-300,300,315,315,,775,90,M,Николай Куракин,1967,SBD,Single-ply,Open
4,Yuriy Kostenko,89.6,240,255,262.5,262.5,,170,180,-187.5,180,,275,295,-302.5,295,,737.5,90,M,Юрій Костенко,1971,SBD,Single-ply,Open
5,Denys Cherednyk,89.1,265,-275,-275,265,,160,165,167.5,167.5,,260,270,275,275,,707.5,90,M,Денис Чередник,1975,SBD,Single-ply,Open
6,Sergiy Subbota,89.7,260,-270,280,280,,145,155,160,160,,235,247.5,260,260,,700,90,M,Сергій Суббота,1962,SBD,Single-ply,Open
7,Vasyl' Strelbytskyy,89.9,-260,270,-280,270,,170,-180,-180,170,,260,-280,-280,260,,700,90,M,Василь Стрельбицький,1962,SBD,Single-ply,Open
8,Mykola Natyazhko,88.8,-260,265,-275,265,,145,150,155,155,,260,270,-280,270,,690,90,M,Микола Натяжко,1962,SBD,Single-ply,Open
9,Vitaliy Lyalyuk,89.95,240,260,-270,260,,160,-170,-170,160,,250,265,-270,265,,685,90,M,Віталій Лялюк,1971,SBD,Single-ply,Open
10,Dmytro Solodkyy,87.5,220,230,-240,230,,185,190,195,195,,225,235,-245,235,,660,90,M,Дмитро Солодкий,1971,SBD,Single-ply,Open
11,Igor Grabovskyy,88.2,-230,230,-245,230,,150,157.5,-162.5,157.5,,200,210,215,215,,602.5,90,M,Ігор Грабовський,1968,SBD,Single-ply,Open
12,Sergiy Levsha,90,200,-210,,200,,-150,150,-157.5,150,,235,242.5,-250,242.5,,592.5,90,M,Сергій Левша,1959,SBD,Single-ply,Open
13,Igor Shendryk,87,190,200,-210,200,,-140,140,,140,,200,220,-230,220,,560,90,M,Ігор Шендрик,1976,SBD,Single-ply,Open
1,Mykhailo Starov,98,310,330,-340,330,,-170,180,190,190,,300,315,-320,315,,835,100,M,Михайло Старов,1973,SBD,Single-ply,Open
2,Oleksiy Solovyov,97.5,-310,310,-330,310,,205,215,222.5,222.5,,275,287.5,-302.5,287.5,,820,100,M,Олексій Соловйов,1975,SBD,Single-ply,Open
3,Albert Voytsekhovskiy,100,300,315,-322.5,315,,162.5,170,175,175,,310,325,-340,325,,815,100,M,Альберт Войцеховський,1970,SBD,Single-ply,Open
4,Igor Ulyatovsky,99.4,290,-302.5,-305,290,,190,-200,202.5,202.5,,-270,280,-290,280,,772.5,100,M,Ігор Улятовський,1969,SBD,Single-ply,Open
5,Oleg Koroliov,93,270,-280,-280,270,,180,-190,,180,,270,,,270,,720,100,M,Олег Корольов,1971,SBD,Single-ply,Open
6,Volodymyr Lebedev,99.5,-270,270,-280,270,,160,-167.5,170,170,,272.5,280,,280,,720,100,M,Володимир Лебєдєв,1950,SBD,Single-ply,Open
7,Viktor Dubovoy,97.5,220,240,250,250,,150,-157.5,157.5,157.5,,220,-237.5,242.5,242.5,,650,100,M,Віктор Дубовой,1971,SBD,Single-ply,Open
8,Viktor Medvedkov,98,-230,230,-240,230,,125,130,-135,130,,240,-250,-250,240,,600,100,M,Віктор Медведков,1973,SBD,Single-ply,Open
DQ,Valeriy Voitsekhovsky,98.4,295,320,-325,320,,170,175,-177.5,175,,-307.5,-320,-320,,,,100,M,Валерій Войцеховський,1972,SBD,Single-ply,Open
DQ,Leonid Akinin,97,-240,-240,-240,,,,,,,,,,,,,,100,M,Леонід Акінін,1966,SBD,Single-ply,Open
1,Valeriy Melnyk,108,300,320,-330,320,,200,212.5,215,215,,290,307.5,-310,307.5,,842.5,110,M,Валерій Мельник,1958,SBD,Single-ply,Open
2,Igor Antypenko,108,300,315,325,325,,-170,-175,180,180,,315,-317.5,-317.5,315,,820,110,M,Ігор Антипенко,1968,SBD,Single-ply,Open
3,Oleksiy Pletynenko,103.9,275,285,295,295,,170,177.5,182.5,182.5,,300,312.5,-322.5,312.5,,790,110,M,Олексій Плетиненко,1961,SBD,Single-ply,Open
4,Volodymyr Kovalev,101.85,-280,280,-300,280,,-170,170,180,180,,240,265,280,280,,740,110,M,Володимир Ковальов,1975,SBD,Single-ply,Open
5,Volodymyr Barabash,105.7,270,285,-290,285,,150,160,-167.5,160,,270,285,-300,285,,730,110,M,Володимир Барабаш,1971,SBD,Single-ply,Open
6,Sergiy Klyuyenko,106.8,-270,270,-285,270,,140,150,-160,150,,270,285,300,300,,720,110,M,Сергій Клюєнко,1969,SBD,Single-ply,Open
7,Mykola Khitsenko,109,270,282.5,-285,282.5,,170,180,182.5,182.5,,240,255,-260,255,,720,110,M,Микола Хиценко,1961,SBD,Single-ply,Open
8,Oleksandr Kanygin,105,230,240,-250,240,,150,160,-165,160,,-260,260,265,265,,665,110,M,Олександр Канигін,1974,SBD,Single-ply,Open
9,Florin Ivanov,109.6,225,-240,245,245,,150,155,-160,155,,225,240,-250,240,,640,110,M,Флорін Іванов,1975,SBD,Single-ply,Open
10,Mykhailo Isaev,103.5,190,200,-205,200,,160,170,180,180,,220,230,-240,230,,610,110,M,Михайло Ісаев,1969,SBD,Single-ply,Open
DQ,Anatoliy Grishchenkov,108.2,290,-300,-300,290,,200,210,212.5,212.5,,-320,-320,,,,,110,M,Анатолій Грищенков,1960,SBD,Single-ply,Open
1,Viktor Pirogov,111,300,310,330,330,,165,175,-185,175,,280,-300,-300,280,,785,125,M,Віктор Пирогов,1956,SBD,Single-ply,Open
2,Sergiy Pervak,123,280,290,-300,290,,-210,215,220,220,-225,260,275,,275,,785,125,M,Сергій Первак,1958,SBD,Single-ply,Open
3,Anatoliy Myshkovskyy,116,280,290,-300,290,,200,210,-212.5,210,,260,270,-285,270,,770,125,M,Анатолій Мишковський,1962,SBD,Single-ply,Open
4,Sergiy Gryshyn,118,270,-280,-280,270,,185,190,195,195,,260,280,-290,280,,745,125,M,Сергій Гришин,1967,SBD,Single-ply,Open
1,Yuriy Spinov,142.3,400,425,,425,,190,200,205,205,,370,-390,-390,370,,1000,125+,M,Юрій Спінов,1962,SBD,Single-ply,Open
2,Vasyl' Orobets,143.7,300,320,340,340,,190,200,210,210,,300,310,320,320,,870,125+,M,Василь Оробець,1966,SBD,Single-ply,Open
1,Yevgeniya Filippova,44,-90,-90,90,90,,42.5,45,47.5,47.5,,105,110,115,115,120,252.5,44,F,Євгенія Філіппова,1975,SBD,Single-ply,Open
2,Tetyana Tikhonova,42.8,80,-90,-90,80,,35,-40,40,40,,90,100,110,110,-115,230,44,F,Тетяна Тіхонова,1977,SBD,Single-ply,Open
3,Viktoriya Shcherban,44,65,70,75,75,,30,35,-37.5,35,,80,85,90,90,,200,44,F,Вікторія Щербань,1980,SBD,Single-ply,Open
4,Yana Petrenko,36,60,65,70,70,,32.5,-37.5,37.5,37.5,,75,82.5,87.5,87.5,,195,44,F,Яна Петренко,1981,SBD,Single-ply,Open
5,Anna Miroshnichenko,42.1,-62.5,62.5,70,70,,27.5,-32.5,-32.5,27.5,,80,90,-97.5,90,,187.5,44,F,Анна Мірошниченко,1980,SBD,Single-ply,Open
6,Olena Pariyeva,43.75,60,-70,-70,60,,32.5,35,-37.5,35,,-80,-80,80,80,,175,44,F,Олена Парієва,1971,SBD,Single-ply,Open
1,Natalya Finchenko,48,75,80,85,85,,37.5,-42.5,-42.5,37.5,,95,100,105,105,,227.5,48,F,Наталя Фінченко,1976,SBD,Single-ply,Open
2,Olga Primakova,46.55,67.5,72.5,75,75,,55,57.5,-60,57.5,,80,85,-87.5,85,,217.5,48,F,Ольга Примакова,1981,SBD,Single-ply,Open
1,Oksana Spiridonova,52,110,120,125,125,,55,62.5,67.5,67.5,,115,125,135,135,,327.5,52,F,Оксана Спірідонова,1974,SBD,Single-ply,Open
2,Olena Bespartochna,52,75,80,-85,80,,62.5,65,-67.5,65,,115,122.5,132.5,132.5,,277.5,52,F,Олена Беспарточна,1974,SBD,Single-ply,Open
3,Marina Finchenko,51,100,107.5,112.5,112.5,,42.5,47.5,-50,47.5,,105,115,-120,115,,275,52,F,Марина Фінченко,1978,SBD,Single-ply,Open
4,Viktoriya Minyaylo,50,67.5,75,-80,75,,37.5,42.5,45,45,,80,90,100,100,,220,52,F,Вікторія Міняйло,1973,SBD,Single-ply,Open
5,Olena Kozina,51,60,67.5,-72.5,67.5,,42.5,47.5,50,50,,85,-92.5,92.5,92.5,,210,52,F,Олена Козіна,1968,SBD,Single-ply,Open
DQ,Yuliya Bannikova,51.7,-80,-80,-80,,,,,,,,,,,,,,52,F,Юлія Баннікова,1977,SBD,Single-ply,Open
DQ,Svitlana Krasnobryzha,52,-90,-90,-90,,,,,,,,,,,,,,52,F,Світлана Краснобрижа,1960,SBD,Single-ply,Open
1,Ludmyla Starova,55.7,-140,-140,140,140,,65,72.5,77.5,77.5,,150,160,170,170,,387.5,56,F,Людмила Старова,1970,SBD,Single-ply,Open
2,Natalya Ship,56,-132.5,-132.5,135,135,-142.5,57.5,-62.5,-62.5,57.5,,120,125,127.5,127.5,,320,56,F,Наталя Шип,1976,SBD,Single-ply,Open
3,Inna Savyachenko,54.5,85,95,-100,95,,60,-65,-65,60,,100,110,117.5,117.5,,272.5,56,F,Інна Савяченко,1971,SBD,Single-ply,Open
4,Luciena Andresyuk,54.15,-95,95,-100,95,,45,47.5,-50,47.5,,115,120,125,125,,267.5,56,F,Люсьєна Андресюк,1977,SBD,Single-ply,Open
DQ,Svitlana Poplavska,55.5,-130,-130,-130,,,,,,,,,,,,,,56,F,Світлана Поплавська,1966,SBD,Single-ply,Open
1,Olena Pylypenko,60,75,85,-90,85,,40,45,47.5,47.5,,100,107.5,112.5,112.5,,245,60,F,Олена Пилипенко,1977,SBD,Single-ply,Open
2,Natalya Pavelko,59.1,-70,75,80,80,,37.5,40,42.5,42.5,,110,115,120,120,,242.5,60,F,Наталя Павелко,1975,SBD,Single-ply,Open
3,Tetyana Malukha,56.1,70,75,80,80,,45,50,-52.5,50,,85,90,95,95,,225,60,F,Тетяна Малуха,1966,SBD,Single-ply,Open
1,Iryna Dubinina,67,170,185,190,190,,85,92.5,95,95,,165,175,185,185,,470,67.5,F,Ірина Дубініна,1966,SBD,Single-ply,Open
2,Olena Miroshnichenko,65.5,130,140,-150,140,,70,75,77.5,77.5,,140,150,-155,150,,367.5,67.5,F,Олена Мірошниченко,1970,SBD,Single-ply,Open
3,Inna Andriyevska,66.5,100,105,110,110,,40,45,-50,45,,120,135,-145,135,,290,67.5,F,Інна Андрієвська,1975,SBD,Single-ply,Open
4,Viktoriya Chelpambayeva,65,70,85,90,90,,35,37.5,40,40,,110,-115,115,115,,245,67.5,F,Вікторія Челпамбаєва,1975,SBD,Single-ply,Open
1,Olena Sukhetska,75,90,100,-110,100,,40,45,-50,45,,112.5,117.5,125,125,,270,75,F,Олена Сухецька,1975,SBD,Single-ply,Open
2,Maryna Golovatyuk,74.5,100,105,-110,105,,35,40,-45,40,,110,115,122.5,122.5,,267.5,75,F,Марина Головатюк,1977,SBD,Single-ply,Open
1,Anna Ganenko,81.5,145,-155,155,155,,90,-100,-100,90,,155,-165,-165,155,,400,82.5,F,Анна Ганенко,1975,SBD,Single-ply,Open
