Event,Sex,Name,State,BodyweightKg,WeightClassKg,Division,Best3SquatKg,Best3BenchKg,Best3DeadliftKg,TotalKg,Equipment,Place
SBD,M,Aaron Ziffle,SK,92.8,93,Open,300,210,260,770,Single-ply,1
SBD,F,Pamela Windrum,SK,101.8,84+,Open,182.5,112.5,155,450,Single-ply,1
SBD,F,Robyn Homans,AB,73.3,84,Open,165,90,170,425,Single-ply,1
SBD,F,Heidi Fowler,SK,82.2,84,Open,162.5,105,152.5,420,Single-ply,2
SBD,M,Adam Ramzy,BC,82.7,83,Open,340,242.5,318,900.5,Single-ply,1
SBD,M,Stephen Cascioli,BC,66.9,74,Open,245,147.5,252.5,645,Single-ply,1
SBD,F,Rhaea Stinn,SK,71.7,72,Open,215,147.5,200,562.5,Single-ply,1
SBD,F,Dani Savoie,AB,71.4,72,Open,180,112.5,160,452.5,Single-ply,2
SBD,M,Stephen Price,SK,65.6,66,Open,257.5,117.5,237.5,612.5,Single-ply,1
SBD,F,Shantelle Szuch,SK,62.8,63,Open,180,97.5,187.5,465,Single-ply,2
SBD,F,Melanie Ziffle,SK,60.9,63,Open,200,105,170,475,Single-ply,1
SBD,F,Robyn Ripley,ON,57,57,Open,130,67.5,160,357.5,Single-ply,2
SBD,F,Robyn Price,SK,54.6,57,Open,155,75,127.5,357.5,Single-ply,1
SBD,F,Steph Puddicome,NL,51.5,52,Open,155.5,90,165,410.5,Single-ply,1
SBD,M,Ryan Stinn,SK,140.3,120+,Open,285,270,310,865,Single-ply,1
SBD,M,Russell Agnew,SK,114.9,120,Open,295,180,287.5,762.5,Single-ply,3
SBD,M,Lucas Tetreault,SK,119.4,120,Open,310,220,282.5,812.5,Single-ply,2
SBD,M,John MacDonald,PE,119.5,120,Open,340,280.5,290,910.5,Single-ply,1
SBD,M,Brandon Ward,ON,96.2,105,Open,272.5,180,275,727.5,Single-ply,1
SBD,M,John Fraser,NS,91.2,93,Masters 3,230,172.5,240.5,643,Single-ply,1
SBD,M,Jerry Marentette,ON,82.6,83,Masters 3,242.5,170,250,662.5,Single-ply,1
SBD,M,Don Lovell,BC,65,66,Masters 3,143,75,185.5,403.5,Single-ply,1
SBD,F,Carol Brady,ON,62.6,63,Masters 3,107.5,67.5,107.5,282.5,Single-ply,1
SBD,M,Darwin Eckstrom,AB,109.7,120,Masters 3,200,175,200,575,Single-ply,1
SBD,M,Andrew Bryant,BC,82.8,83,Masters 2,240,175,227.5,642.5,Single-ply,1
SBD,M,Brett Zoerb,SK,73.2,74,Masters 2,177.5,120,200,497.5,Single-ply,1
SBD,F,Jayne Egan,ON,50.8,52,Masters 2,117.5,67.5,135,320,Single-ply,1
SBD,M,Ron Strong,ON,121.4,120+,Masters 2,290,202.5,317.5,810,Single-ply,1
SBD,M,Jeff Butt,NL,92.5,93,Masters 1,277.5,200,280,757.5,Single-ply,1
SBD,F,Vicky Taylor-Hood,NL,77.4,84,Masters 1,112.5,110,175.5,398,Single-ply,1
SBD,F,Mary Ann Kaczor,ON,68.6,72,Masters 1,187.5,117.5,182.5,487.5,Single-ply,1
SBD,M,Brad Kennedy,PE,103.5,105,Masters 1,305,265,257.5,827.5,Single-ply,1
SBD,M,Travis Campbell,SK,91.7,93,Juniors,222.5,150,240,612.5,Single-ply,1
SBD,F,Brittinay Rowland,SK,99.3,84+,Juniors,185,107.5,182.5,475,Single-ply,1
SBD,M,Mehar Bhogal,BC,82.7,83,Juniors,205,140,232.5,577.5,Single-ply,1
SBD,M,Tanner Lepage,SK,103.3,105,Juniors,255,187.5,230,672.5,Single-ply,1
SBD,M,Jake Navarra,QU,91.9,93,Sub-Juniors,240,147.5,307.5,695,Raw,1
SBD,F,Maria AuCoin,NL,76.8,84,Sub-Juniors,80,35,97.5,212.5,Raw,1
SBD,M,Deston Yee,AB,78.6,83,Sub-Juniors,167.5,125,220,512.5,Raw,1
SBD,M,Noah Ukrainetz,ON,71.2,74,Sub-Juniors,216,125,250,591,Raw,1
SBD,F,Emily McKenna,PE,71.7,72,Sub-Juniors,95,45,132.5,272.5,Raw,2
SBD,F,Camille Tremblay,QU,71.1,72,Sub-Juniors,160,75,155,390,Raw,1
SBD,M,Eduardo Platas,ON,64.5,66,Sub-Juniors,147.5,110,202.5,460,Raw,1
SBD,M,Riley Bullett,ON,56.9,59,Sub-Juniors,150,100,175,425,Raw,1
SBD,M,Conor Paquette,AB,117.9,120,Sub-Juniors,187.5,117.5,217.5,522.5,Raw,1
SBD,M,Cameron St Amand,AB,100.6,105,Sub-Juniors,284,170,276,730,Raw,1
SBD,M,Walter Cariazo,ON,91.6,93,Open,257.5,170,322.5,750,Raw,2
SBD,M,Taylor Wallace,SK,89.6,93,Open,281.5,162.5,290,734,Raw,5
SBD,M,Taylor Shadgett,ON,92.6,93,Open,281,162.5,290,733.5,Raw,6
SBD,M,Taro Yamashita,ON,88.4,93,Open,212.5,142.5,275,630,Raw,12
SBD,M,Nick Roberts,NL,92,93,Open,283,167.5,310,760.5,Raw,1
SBD,M,Neil Tkatchuk,SK,93,93,Open,250,165,260,675,Raw,10
SBD,M,Mike MacDonald,AB,92.7,93,Open,245,185,305,735,Raw,4
SBD,M,Jon Marrese,AB,92,93,Open,240,132.5,255,627.5,Raw,13
SBD,M,Joël Boulianne,QU,92.4,93,Open,257.5,202.5,290,750,Raw,3
SBD,M,David Stevens,SK,90.2,93,Open,272.5,170,287.5,730,Raw,7
SBD,M,Cameron Jones,SK,90.5,93,Open,75,132.5,265,472.5,Raw,14
SBD,M,Brandon Summers,ON,91.9,93,Open,250,177.5,260,687.5,Raw,9
SBD,M,Ben Kozyra,AB,91.9,93,Open,222.5,157.5,265,645,Raw,11
SBD,M,Beau Hanrahan,AB,92.2,93,Open,255,175,272.5,702.5,Raw,8
SBD,F,Valérie Gauthier,QU,150.4,84+,Open,165,102.5,185,452.5,Raw,4
SBD,F,Rose Jeffares,AB,131.1,84+,Open,142.5,110,185,437.5,Raw,6
SBD,F,Lexie Elias,MB,126.3,84+,Open,142.5,77.5,175,395,Raw,8
SBD,F,Lana Price-Wright,SK,133.8,84+,Open,135,72.5,150,357.5,Raw,9
SBD,F,Kendra Wilson,SK,136.5,84+,Open,140,82.5,175,397.5,Raw,7
SBD,F,Jessie Buydens,SK,118.1,84+,Open,170,102.5,180,452.5,Raw,2
SBD,F,Jacqueline Lewis,NL,140.1,84+,Open,165,82.5,205,452.5,Raw,3
SBD,F,Hailey Kostynuik,MB,130.7,84+,Open,237.5,110,207.5,555,Raw,1
SBD,F,Emilie Belanger,AB,124.1,84+,Open,165,82.5,190,437.5,Raw,5
SBD,F,Robyn Michon,SK,74.7,84,Open,137.5,75,145,357.5,Raw,6
SBD,F,Michèle Gagnon,QU,82,84,Open,145,75,172.5,392.5,Raw,2
SBD,F,Marianne Marchildon,SK,78.9,84,Open,152.5,85,165,402.5,Raw,1
SBD,F,Maggie Payne,NL,82.2,84,Open,142.5,62.5,160,365,Raw,5
SBD,F,Jocelyn Blake,MB,79.2,84,Open,155,80,145,380,Raw,3
SBD,F,Frédérique B Gauthier,QU,78.5,84,Open,125,65,157.5,347.5,Raw,8
SBD,F,Elizabeth Anderson,BC,75,84,Open,122.5,70,155,347.5,Raw,7
SBD,F,Angelina Van Ryswyk,AB,81.6,84,Open,140,80,145,365,Raw,4
SBD,M,Shawn McCarthy,MB,81.8,83,Open,175,135,215,525,Raw,11
SBD,M,Robert Perry,NL,82.3,83,Open,195,140,262.5,597.5,Raw,7
SBD,M,Mohammad Ibrahim,ON,81.3,83,Open,220,137.5,260,617.5,Raw,4
SBD,M,Michael Previdsa,ON,82.7,83,Open,75,155,282.5,512.5,Raw,12
SBD,M,Michael Brennan,AB,81,83,Open,217.5,147.5,250,615,Raw,5
SBD,M,Mathew Bowen,MB,82.6,83,Open,217.5,125,242.5,585,Raw,8
SBD,M,Mark Webster,ON,82,83,Open,257.5,145,267.5,670,Raw,3
SBD,M,Mark Wasson,NB,81.7,83,Open,250,160,285,695,Raw,1
SBD,M,Marc Morris,SK,80.9,83,Open,215,125,235,575,Raw,9
SBD,M,Joseph Benoit,NS,80.9,83,Open,202.5,127.5,230,560,Raw,10
SBD,M,Jonathan Simard,QU,82.4,83,Open,255,177.5,250,682.5,Raw,2
SBD,M,Adam Manery,AB,82.6,83,Open,225,150,240,615,Raw,6
SBD,M,Steven Chen,AB,72.7,74,Open,205,115,225,545,Raw,8
SBD,M,Sean Janzer,BC,73.2,74,Open,210,127.5,260,597.5,Raw,4
SBD,M,Kojo Gyennin,AB,73.2,74,Open,227.5,142.5,285,655,Raw,2
SBD,M,Joshua Caoleng,ON,72.8,74,Open,200,112.5,240,552.5,Raw,7
SBD,M,Joel Janssen,ON,73.4,74,Open,212.5,142.5,277.5,632.5,Raw,3
SBD,M,Jeremy Klaus,BC,74,74,Open,212.5,137.5,232.5,582.5,Raw,6
SBD,M,Damien Wilmot,ON,73,74,Open,182.5,130,232.5,545,Raw,9
SBD,M,Connor Lutz,SK,73.4,74,Open,240,183,247.5,670.5,Raw,1
SBD,M,Bryce Thomson,BC,73,74,Open,232.5,102.5,252.5,587.5,Raw,5
SBD,F,Teighan McIntyre,ON,68.2,72,Open,132.5,75,160,367.5,Raw,7
SBD,F,Sarah Leighton,ON,71.1,72,Open,165,100,172.5,437.5,Raw,3
SBD,F,Sarah Clark,ON,71.5,72,Open,150,65,152.5,367.5,Raw,8
SBD,F,Samantha March,AB,70.6,72,Open,135,75,172.5,382.5,Raw,5
SBD,F,Rhaea Stinn,SK,71.2,72,Open,180,112.5,180,472.5,Raw,1
SBD,F,Nicole Davies,QU,70.1,72,Open,150,75,182.5,407.5,Raw,4
SBD,F,Mihaela-Cristina MacLean,BC,68.9,72,Open,135,90,155,380,Raw,6
SBD,F,Leslie Sullivan,ON,70.8,72,Open,115,62.5,155,332.5,Raw,10
SBD,F,Chelsea Sveinbjornson,SK,68.1,72,Open,122.5,80,115,317.5,Raw,11
SBD,F,Angelina McOuat,ON,72,72,Open,132.5,70,162.5,365,Raw,9
SBD,F,Alyssa Smith,ON,70.4,72,Open,170,90,202.5,462.5,Raw,2
SBD,M,Stephen Cascioli,BC,65.4,66,Open,241,155,250,646,Raw,1
SBD,M,Ryan Kolesar,MB,63.2,66,Open,180,120,222.5,522.5,Raw,4
SBD,M,Kent Brown,SK,64.7,66,Open,175,140,170,485,Raw,5
SBD,M,Jesse Moores,ON,65.7,66,Open,212.5,142.5,240,595,Raw,2
SBD,M,Daniel Remulla,ON,65.7,66,Open,215,150,227.5,592.5,Raw,3
SBD,F,Wendy Pronick,BC,62.2,63,Open,142.5,87.5,165,395,Raw,2
SBD,F,Teresa Parsons,AB,60.8,63,Open,140,85,187.5,412.5,Raw,1
SBD,F,Shalon McFarlane,AB,62.1,63,Open,127.5,70,127.5,325,Raw,17
SBD,F,Sarah Kolbuc,ON,60.9,63,Open,140,75,142.5,357.5,Raw,10
SBD,F,Robyn Ripley,ON,59.3,63,Open,125,72.5,130,327.5,Raw,15
SBD,F,Natalie Nikiforuk,AB,61.8,63,Open,132.5,80,162.5,375,Raw,5
SBD,F,Milayna Goruick,SK,59.8,63,Open,112.5,62.5,150,325,Raw,16
SBD,F,Megan Carroll,NL,62.5,63,Open,140,65,165,370,Raw,6
SBD,F,Meana Franco,ON,61.8,63,Open,135,90,137.5,362.5,Raw,8
SBD,F,Maria Taccone,ON,62,63,Open,145,77.5,162.5,385,Raw,4
SBD,F,Li-An Chen,SK,58.6,63,Open,120,70,155,345,Raw,12
SBD,F,Leah Mamane,QU,60.3,63,Open,125,82.5,145,352.5,Raw,11
SBD,F,Krista Sali,SK,62.3,63,Open,120,57.5,160,337.5,Raw,14
SBD,F,Jennifer Carter,ON,61.8,63,Open,130,75,155,360,Raw,9
SBD,F,Angela MacKay,SK,62.5,63,Open,137.5,65,165,367.5,Raw,7
SBD,F,Amy Smith,SK,62.7,63,Open,153,82.5,157.5,393,Raw,3
SBD,F,Amelia Ng,ON,61.7,63,Open,117.5,70,157.5,345,Raw,13
SBD,M,Serge Gauthier,QU,54,59,Open,152.5,107.5,157.5,417.5,Raw,3
SBD,M,Jerimiah West,ON,58.8,59,Open,175,110,192.5,477.5,Raw,1
SBD,M,Alfred Jong,AB,58.2,59,Open,167.5,105,195,467.5,Raw,2
SBD,F,Naomi Graham,QU,55.6,57,Open,100,55,140,295,Raw,12
SBD,F,Michelle Smith,NS,56.2,57,Open,125,62.5,157.5,345,Raw,4
SBD,F,Michelle Butler,SK,56.7,57,Open,102.5,52.5,120,275,Raw,14
SBD,F,Maria Htee,NL,56.8,57,Open,173,95,167.5,435.5,Raw,1
SBD,F,Julie Mushynsky,SK,56.1,57,Open,130,55,152.5,337.5,Raw,5
SBD,F,Julie Ditzend,ON,54.3,57,Open,120,75,135,330,Raw,8
SBD,F,Johanna Reichel #1,AB,55.7,57,Open,112.5,60,150,322.5,Raw,9
SBD,F,Jessica Benedetto,QU,56.3,57,Open,150,102,170,422,Raw,2
SBD,F,Jennifer McConnell,ON,56.2,57,Open,110,72.5,130,312.5,Raw,10
SBD,F,Jannelle Van Den Bosch,MB,56.3,57,Open,110,57.5,122.5,290,Raw,13
SBD,F,Erin Ashbacher,AB,54.5,57,Open,105,70,122.5,297.5,Raw,11
SBD,F,Elisabeth Fournier,ON,56.3,57,Open,112.5,60,160,332.5,Raw,7
SBD,F,Brittney Bergen,SK,56.5,57,Open,140,75,157.5,372.5,Raw,3
SBD,F,Angela Williams,NL,56.2,57,Open,130,60,142.5,332.5,Raw,6
SBD,F,Steph Puddicome,NL,49.7,52,Open,143.5,67.5,150,361,Raw,2
SBD,F,Joanna Rieber,ON,51.7,52,Open,130,85.5,152.5,368,Raw,1
SBD,F,Jill MacFarlane,PE,48.5,52,Open,72.5,45,87.5,205,Raw,5
SBD,F,Cynthia Vo,ON,49.8,52,Open,117.5,65,155,337.5,Raw,3
SBD,F,Clarissa Stewart,MB,50.4,52,Open,100,67.5,122.5,290,Raw,4
SBD,F,Simone Lai,ON,44.8,47,Open,110,45,122.5,277.5,Raw,2
SBD,F,Rhonda Wong,AB,46.8,47,Open,120,60,127.5,307.5,Raw,1
SBD,F,Kanako MacDonald,SK,46,47,Open,97.5,55,115,267.5,Raw,3
SBD,M,Tyler Harnett,SK,129.5,120+,Open,300,197.5,280,777.5,Raw,3
SBD,M,Sean Hayes,BC,138.7,120+,Open,272.5,180,297.5,750,Raw,5
SBD,M,Kelly Branton,ON,154.8,120+,Open,365,242.5,320,927.5,Raw,1
SBD,M,John Boyd,SK,136.3,120+,Open,282.5,187.5,295,765,Raw,4
SBD,M,Brad Kleefeld,SK,146.7,120+,Open,335,205,320,860,Raw,2
SBD,M,Tyler MacInnis,MB,118.7,120,Open,260,165,272.5,697.5,Raw,6
SBD,M,Philip Brougham,ON,119.1,120,Open,290,180,295,765,Raw,3
SBD,M,Erik Willis,ON,118.4,120,Open,310,210,347.5,867.5,Raw,1
SBD,M,Dre Grasdal,SK,117.3,120,Open,240,167.5,287.5,695,Raw,7
SBD,M,Denis LaBreche,SK,109.6,120,Open,267.5,155,295,717.5,Raw,4
SBD,M,Conrad Davies,ON,118.9,120,Open,260,172.5,285,717.5,Raw,5
SBD,M,Christian Théorêt,QU,117,120,Open,255,140,250,645,Raw,8
SBD,M,Adrian Locke,AB,115.7,120,Open,302.5,197.5,300,800,Raw,2
SBD,M,Trung Lieu,ON,102.2,105,Open,240,190,265,695,Raw,6
SBD,M,Travis Mattice,MB,102.5,105,Open,245,200,255,700,Raw,4
SBD,M,Taylor Abolade,MB,102.1,105,Open,262.5,130,265,657.5,Raw,8
SBD,M,Leon Brown,ON,102.6,105,Open,290,220,270,780,Raw,2
SBD,M,Kristin Fischer,ON,102.8,105,Open,272.5,165,260,697.5,Raw,5
SBD,M,Kevin Farrell,NL,103.7,105,Open,212.5,142.5,250,605,Raw,11
SBD,M,Jeffrey Baker,AB,104.4,105,Open,240,155,267.5,662.5,Raw,7
SBD,M,James Bartlett,AB,101.1,105,Open,275,167.5,305,747.5,Raw,3
SBD,M,David Kang,BC,104.5,105,Open,240,135,245,620,Raw,10
SBD,M,Cody Tomiuck,ON,103,105,Open,235,150,270,655,Raw,9
SBD,M,Bryce Krawczyk,AB,104.2,105,Open,315,165,335,815,Raw,1
SBD,M,Tom Cragg,BC,64.8,66,Masters 4,65,45,130,240,Raw,1
SBD,F,Janice Shulman,ON,50.7,52,Masters 4,57.5,37.5,82.5,177.5,Raw,1
SBD,M,Hal Mulholland,NB,127.9,120+,Masters 4,142.5,120,225,487.5,Raw,1
SBD,M,John Fraser,NS,91.9,93,Masters 3,190.5,145,240,575.5,Raw,1
SBD,F,Sylvia Gaucher,AB,98,84+,Masters 3,87.5,55,137.5,280,Raw,1
SBD,F,Linda Rousseau,ON,80.1,84,Masters 3,115,62.5,110,287.5,Raw,1
SBD,M,Ron Delaney,NS,82,83,Masters 3,180,122.5,250,552.5,Raw,2
SBD,M,Jerry Marentette,ON,82.3,83,Masters 3,190,130,245,565,Raw,1
SBD,M,Brian Desjarlais,SK,80.8,83,Masters 3,125,127.5,120,372.5,Raw,3
SBD,F,Gerri Howlett,NL,67,72,Masters 3,85,47.5,115,247.5,Raw,1
SBD,M,Don Lovell,BC,64.6,66,Masters 3,112.5,62.5,179,354,Raw,1
SBD,F,Tania Spak,SK,59,63,Masters 3,90,55,127.5,272.5,Raw,1
SBD,F,Allison Bernard-Mahadeo,AB,61.8,63,Masters 3,77.5,45,115,237.5,Raw,2
SBD,F,Janet Warne,QU,55.7,57,Masters 3,88.5,47.5,92.5,228.5,Raw,1
SBD,M,Bill Stevens,ON,109.4,120,Masters 3,185,115,202.5,502.5,Raw,1
SBD,M,Paul Francis,ON,103.4,105,Masters 3,187.5,150,225.5,563,Raw,2
SBD,M,Miroslav Koprnicky,ON,97.4,105,Masters 3,187.5,150.5,225.5,563.5,Raw,1
SBD,M,Ron Corcoran,NL,90.9,93,Masters 2,155,107.5,205,467.5,Raw,3
SBD,M,Larry Walsh,NL,92.7,93,Masters 2,182.5,110,240,532.5,Raw,2
SBD,M,Claude Dallaire,QU,91.2,93,Masters 2,207.5,132.5,267.5,607.5,Raw,1
SBD,F,Wendy Norton,ON,98.6,84+,Masters 2,135,70,165,370,Raw,3
SBD,F,Shelley Colter,ON,119.2,84+,Masters 2,135,70,167.5,372.5,Raw,2
SBD,F,Sandra Nase,SK,102.7,84+,Masters 2,112.1,60,160,332.5,Raw,5
SBD,F,Jose Potter,AB,106.2,84+,Masters 2,142.5,80,180,402.5,Raw,1
SBD,F,Gwendelyn Grasdal,SK,110.4,84+,Masters 2,110,67.5,162.5,340,Raw,4
SBD,F,Stephanie Needham,BC,82.5,84,Masters 2,115,70,140,325,Raw,3
SBD,F,Shari Khawaja,ON,75.2,84,Masters 2,142.5,87.5,162.5,392.5,Raw,1
SBD,F,Linda McFeeters,ON,75.7,84,Masters 2,100,65,147.5,312.5,Raw,5
SBD,F,Janine Wheeler,ON,83.5,84,Masters 2,110,60,125,295,Raw,6
SBD,F,Janet Martin,NL,83.3,84,Masters 2,122.5,50,150,322.5,Raw,4
SBD,F,Genevieve Grant,SK,83.2,84,Masters 2,132.5,82.5,167.5,382.5,Raw,2
SBD,M,Sandro D'Angelo,ON,82.1,83,Masters 2,207.5,132.5,247.5,587.5,Raw,2
SBD,M,Jeff Becker,ON,82.7,83,Masters 2,225,145,260,630,Raw,1
SBD,M,James Abraham,ON,83,83,Masters 2,202.5,127.5,245,575,Raw,3
SBD,M,Brett Zoerb,SK,73,74,Masters 2,182.5,112.5,180,475,Raw,1
SBD,F,Beverly Sharpe,NL,70.1,72,Masters 2,111,47.5,107.5,266,Raw,1
SBD,F,Sandy Bellan-Miron,AB,61.7,63,Masters 2,80,45,125,250,Raw,4
SBD,F,Sandra Fernandez,AB,61.6,63,Masters 2,97.5,55,120,272.5,Raw,3
SBD,F,Gayle Johnson,NL,62.9,63,Masters 2,98,62.5,150,310.5,Raw,1
SBD,F,Deb Ellard,AB,60.5,63,Masters 2,97.5,60,125,282.5,Raw,2
SBD,F,Kimberly Power,ON,56.3,57,Masters 2,102.5,55,120,277.5,Raw,1
SBD,F,Karen Hann,NL,56.7,57,Masters 2,97.5,47.5,95,240,Raw,2
SBD,F,Jayne Egan,ON,50.7,52,Masters 2,97.5,57.5,125,280,Raw,1
SBD,F,Marnel Spencer,SK,45.5,47,Masters 2,75,47,105,227,Raw,1
SBD,M,Ron Strong,ON,119.3,120,Masters 2,240,165,285,690,Raw,1
SBD,M,Gordon Sjodin,BC,104.1,105,Masters 2,195,162.5,240,597.5,Raw,1
SBD,M,Ryan Thiessen,AB,92.9,93,Masters 1,217.5,152.5,245,615,Raw,3
SBD,M,Ryan Kells,NS,92.1,93,Masters 1,200,115,275.5,590.5,Raw,4
SBD,M,Kevin Weiss,BC,91.2,93,Masters 1,220,160,240,620,Raw,2
SBD,M,Jeff Butt,NL,92.5,93,Masters 1,243,157.5,260,660.5,Raw,1
SBD,F,Kim LaPlante,AB,96,84+,Masters 1,155,85,205,445,Raw,1
SBD,F,Bonney Rempel,BC,102.6,84+,Masters 1,160,100,160,420,Raw,2
SBD,F,Vicky Taylor-Hood,NL,75.5,84,Masters 1,140,80,185,405,Raw,1
SBD,F,Renae Witzaney,AB,81.5,84,Masters 1,130,83,152.5,365.5,Raw,2
SBD,F,Kim Milani,ON,74.5,84,Masters 1,115,62.5,150,327.5,Raw,4
SBD,F,Gail Soper,NL,82.7,84,Masters 1,142.5,65,150,357.5,Raw,3
SBD,M,Tom Kean,NL,79.4,83,Masters 1,226,160,255,641,Raw,1
SBD,M,Robert King,NL,82.2,83,Masters 1,188,135,227.5,550.5,Raw,2
SBD,M,Lewis Noppers,AB,71.8,74,Masters 1,212.5,135,260.5,608,Raw,1
SBD,F,Mary Ann Kaczor,ON,68.5,72,Masters 1,145.5,87.5,167.5,400.5,Raw,1
SBD,F,Janet Loesel Sitar,MB,70.5,72,Masters 1,102.5,67.5,137.5,307.5,Raw,4
SBD,F,Anita Santos,ON,69.8,72,Masters 1,132.5,67.5,142.5,342.5,Raw,3
SBD,F,Angela Desjarlais,SK,70.3,72,Masters 1,137.5,85,125,347.5,Raw,2
SBD,M,Chris Aviado,ON,65,66,Masters 1,172.5,155,205,532.5,Raw,1
SBD,F,Shana Betz,ON,62.5,63,Masters 1,110,62.5,130,302.5,Raw,5
SBD,F,Natasha Dunn,PE,62.4,63,Masters 1,132.5,80,142.5,355,Raw,2
SBD,F,Frances Manias,ON,61.8,63,Masters 1,127.5,75,155,357.5,Raw,1
SBD,F,Debbie Huq,QU,61.5,63,Masters 1,105,62.5,150,317.5,Raw,4
SBD,F,Carla Ramsay,NL,62.4,63,Masters 1,125,60,150,335,Raw,3
SBD,F,Paula Roberts,NL,56.2,57,Masters 1,115,65,150,330,Raw,1
SBD,F,Juanita Koo,ON,54.8,57,Masters 1,100,60,135,295,Raw,3
SBD,F,Heather Ayles,PE,56.9,57,Masters 1,100,70,137.5,307.5,Raw,2
SBD,F,Danielle Hussey,NL,55.3,57,Masters 1,102.5,50,110,262.5,Raw,4
SBD,F,Shelley Sandiford,ON,48.7,52,Masters 1,87.5,55,145,287.5,Raw,2
SBD,F,Heather Amundrud,ON,51.1,52,Masters 1,111,65,117.5,293.5,Raw,1
SBD,M,Robert Snow,MB,144.3,120+,Masters 1,227.5,167.5,265,660,Raw,1
SBD,M,Rob Lepine,SK,111.9,120,Masters 1,272.5,182.5,257.5,712.5,Raw,2
SBD,M,Collin Pullar,SK,116.8,120,Masters 1,275,197.5,265,737.5,Raw,1
SBD,M,Vince Green,MB,102.6,105,Masters 1,230,167.5,230,627.5,Raw,3
SBD,M,Stéphane Gilbert,QU,100,105,Masters 1,210,147.5,245,602.5,Raw,4
SBD,M,Jean Macneill,AB,103.3,105,Masters 1,250,155,240,645,Raw,2
SBD,M,Daniel Milo,SK,96.4,105,Masters 1,215,107.5,250,572.5,Raw,5
SBD,M,Brian George,NL,104.4,105,Masters 1,250,142.5,265,657.5,Raw,1
SBD,M,Zack Chwok,AB,92.1,93,Juniors,252.5,135,270,657.5,Raw,2
SBD,M,Yohann Savinsky,QU,89.1,93,Juniors,227.5,140,272.5,640,Raw,3
SBD,M,Scott Downs,MB,90.1,93,Juniors,230,125,280,635,Raw,5
SBD,M,Nicholas Thrones,MB,88.8,93,Juniors,200,127.5,240,567.5,Raw,11
SBD,M,Nicholas Di Nardo,ON,92.6,93,Juniors,237.5,177.5,280,695,Raw,1
SBD,M,Mathew Palmer,SK,91,93,Juniors,220,142.5,240,602.5,Raw,8
SBD,M,Kurtis Tallaire,MB,91.1,93,Juniors,200,112.5,227.5,540,Raw,13
SBD,M,Jordan Tallis,ON,90.4,93,Juniors,215,127.5,235,577.5,Raw,9
SBD,M,Jonathan Gough,SK,84.5,93,Juniors,182.5,125,240,547.5,Raw,12
SBD,M,John Odgers,SK,92.6,93,Juniors,217.5,150,245,612.5,Raw,7
SBD,M,Garret Fancy,NS,90.7,93,Juniors,227.5,147.5,255,630,Raw,6
SBD,M,Eric Olsson,ON,92.4,93,Juniors,225,132.5,282.5,640,Raw,4
SBD,M,Carl Majdalani,QU,89,93,Juniors,202.5,110,262.5,575,Raw,10
SBD,F,Kaity Bennett,NL,131.2,84+,Juniors,142.5,90,142.5,375,Raw,2
SBD,F,Janessa Ward,NL,165.7,84+,Juniors,160,60,172.5,392.5,Raw,1
SBD,F,Hannah Brock,SK,84.2,84+,Juniors,135,65,142.5,342.5,Raw,4
SBD,F,Erica King,NL,92.9,84+,Juniors,135,65,160,360,Raw,3
SBD,F,Sara Cowan,ON,83.5,84,Juniors,190,100,207.5,497.5,Raw,1
SBD,F,Kyra Thomson,ON,79.3,84,Juniors,145,65,162.5,372.5,Raw,3
SBD,F,Giselle Hage,NS,83.6,84,Juniors,142.5,80,165,387.5,Raw,2
SBD,F,Brianna Walz,SK,72.6,84,Juniors,90,52.5,125,267.5,Raw,4
SBD,M,Willy Lam,AB,82.5,83,Juniors,200,135,275,610,Raw,4
SBD,M,Tyler Dorazio,ON,79.4,83,Juniors,185,122.5,237.5,545,Raw,7
SBD,M,Trent Blanchard,ON,81.9,83,Juniors,263,142.5,260,665.5,Raw,1
SBD,M,Nickolaus Gray,ON,82.1,83,Juniors,210,127.5,200,537.5,Raw,8
SBD,M,Justin Smith #1,PEI,76.2,83,Juniors,205,152.5,270,627.5,Raw,2
SBD,M,Jason Dellatolla,QU,82.4,83,Juniors,230,142.5,255,627.5,Raw,3
SBD,M,Ian Seguin,ON,79.5,83,Juniors,195,107.5,207.5,510,Raw,10
SBD,M,Christian Pearce,SK,78.1,83,Juniors,222.5,142.5,230,595,Raw,5
SBD,M,Alex Husnik,SK,79.5,83,Juniors,190,120,207.5,517.5,Raw,9
SBD,M,Ahmad Eid,AB,81.8,83,Juniors,205,122.5,252.5,580,Raw,6
SBD,M,Mike Collins,NL,73.5,74,Juniors,177.5,127.5,232.5,537.5,Raw,5
SBD,M,Josh Reyes,ON,73,74,Juniors,215,125,240,580,Raw,3
SBD,M,Josh Hancott,NL,73.9,74,Juniors,245,170,272.5,687.5,Raw,1
SBD,M,Danny Heintz,SK,73.1,74,Juniors,215,127.5,227.5,570,Raw,4
SBD,M,Cameron Preymack,SK,72,74,Juniors,207.5,142.5,257.5,607.5,Raw,2
SBD,M,Cameron Black,SK,69.4,74,Juniors,135,95,170,400,Raw,7
SBD,M,Austin Dorotea,ON,73.4,74,Juniors,190,125,220,535,Raw,6
SBD,F,Taylor Best,NL,68.9,72,Juniors,100,55,150,305,Raw,6
SBD,F,Mallory Rowan,ON,71.1,72,Juniors,142.5,70,145,357.5,Raw,3
SBD,F,Jillian Clark,AB,71.3,72,Juniors,115,60,140,315,Raw,5
SBD,F,Jessica Buettner,SK,71.9,72,Juniors,162.5,81,195,438.5,Raw,1
SBD,F,Hannah Sinclair,ON,72,72,Juniors,107.5,65,130,302.5,Raw,7
SBD,F,Catherine Chu,ON,68.7,72,Juniors,140,65,152.5,357.5,Raw,2
SBD,F,Alexandra Kousathana,ON,72,72,Juniors,120,72.5,132.5,325,Raw,4
SBD,M,Luke Homer,ON,64.6,66,Juniors,220,105,205,530,Raw,2
SBD,M,Larry Ko,AB,65.2,66,Juniors,170,92.5,185,447.5,Raw,3
SBD,M,Clifton Pho,AB,63.5,66,Juniors,202.5,130,265.5,598,Raw,1
SBD,F,Tanya Michel,AB,63,63,Juniors,95,57.5,105,257.5,Raw,9
SBD,F,Skylar Yanke,AB,62.1,63,Juniors,110,72.5,125,307.5,Raw,7
SBD,F,Santana Blanchette,AB,62.3,63,Juniors,110,72.5,132.5,315,Raw,5
SBD,F,Rachel Anyi,BC,57.9,63,Juniors,145,83,150,378,Raw,G
SBD,F,Natasha Pennell,NL,61.8,63,Juniors,95,47.5,125,267.5,Raw,8
SBD,F,Maggie Morgan,ON,61.9,63,Juniors,115,67.5,150,332.5,Raw,2
SBD,F,Lauren Chesher,ON,60.6,63,Juniors,125,75,130,330,Raw,3
SBD,F,Kendra Fleming,NL,62.3,63,Juniors,87.5,37.5,120,245,Raw,10
SBD,F,Justine Maltais,QU,62.2,63,Juniors,110,75,140,325,Raw,4
SBD,F,Danielle Fontyn,ON,62.5,63,Juniors,115,60,135,310,Raw,6
SBD,F,Abby Hall,NS,62.9,63,Juniors,135,75,132.5,342.5,Raw,1
SBD,M,Jason Luo,AB,58.7,59,Juniors,185,105.5,205,495.5,Raw,1
SBD,M,Eden Chow,AB,56.8,59,Juniors,135,85,175,395,Raw,3
SBD,M,Darcy Ducharme,ON,56.8,59,Juniors,175,80,165,420,Raw,2
SBD,F,Kelly Lien,ON,55.8,57,Juniors,115,77.5,145,337.5,Raw,1
SBD,F,Kaitlin Sparks,AB,55.3,57,Juniors,112.5,57.5,132.5,302.5,Raw,3
SBD,F,Alexandra Stodalka,AB,56.9,57,Juniors,120,75,130,325,Raw,2
SBD,F,Samantha Solie,SK,51.8,52,Juniors,122.5,67.5,122.5,312.5,Raw,2
SBD,F,Nicola Paviglianiti,ON,50.3,52,Juniors,112.5,67.5,140,320,Raw,1
SBD,F,Rylea Yanke,AB,46.1,47,Juniors,62.5,57.5,87.5,207.5,Raw,2
SBD,F,Delaina Roul,NL,46.2,47,Juniors,70,32.5,107.5,210,Raw,1
SBD,M,Evan Shaskin,SK,130.8,120+,Juniors,222.5,152.5,272.5,647.5,Raw,1
SBD,M,Kam Hughes,ON,106.8,120,Juniors,255,160,292.5,707.5,Raw,3
SBD,M,Joshua Derchia,ON,119.4,120,Juniors,245,187,295,727,Raw,2
SBD,M,Jeremy North,AB,111.6,120,Juniors,247.5,160,290,697.5,Raw,4
SBD,M,Jake Ripco,ON,119.2,120,Juniors,275,175,287.5,737.5,Raw,1
SBD,M,Anthony Singeris,ON,117.9,120,Juniors,237.5,132.5,252.5,622.5,Raw,5
SBD,M,Paul Farbacher,SK,104.9,105,Juniors,277.5,181,265,723.5,Raw,3
SBD,M,Kerry Dennison,ON,98.3,105,Juniors,230,167.5,325,722.5,Raw,4
SBD,M,Jovan Nichol,ON,104.1,105,Juniors,250,147.5,265,662.5,Raw,5
SBD,M,Jackson Spencer,ON,104.3,105,Juniors,285,175.5,292.5,753,Raw,1
SBD,M,Francis Lalancette,QU,95.4,105,Juniors,220,160,255,635,Raw,6
SBD,M,Austyn Ryan,ON,103.7,105,Juniors,267.5,175,282.5,725,Raw,2
B,F,Krista Vandewaeter,MB,81.3,84,Open,,87.5,,87.5,Single-ply,1
B,M,Ryan Fowler,SK,136.6,120+,Open,,247.5,,247.5,Single-ply,2
B,M,John MacDonald,PE,120.8,120+,Open,,286,,286,Single-ply,1
B,M,Erik Willis,ON,118.4,120,Open,,245,,245,Single-ply,1
B,M,Shane Martin,AB,103.5,105,Open,,273,,273,Single-ply,1
B,M,John Fraser,NS,92.3,93,Masters 3,,167.5,,167.5,Single-ply,1
B,M,Jerry Marentette,ON,83.8,93,Masters 3,,165,,165,Single-ply,2
B,F,Linda Rousseau,ON,81.2,84,Masters 3,,88,,88,Single-ply,1
B,M,Andrew Bryant,BC,88.9,93,Masters 2,,185,,185,Single-ply,1
B,M,Brett Zoerb,SK,74,74,Masters 2,,110,,110,Single-ply,1
B,F,Sue Thomson,ON,48.9,52,Masters 2,,72.5,,72.5,Single-ply,1
B,M,Gordon Sjodin,BC,105.5,120,Masters 2,,150,,150,Single-ply,1
B,M,Robert Truchon,ON,90.1,93,Masters 1,,142.5,,142.5,Single-ply,1
B,M,Robert Snow,MB,145.2,120+,Masters 1,,232.5,,232.5,Single-ply,1
B,M,John Beres,ON,140.3,120+,Masters 1,,210,,210,Single-ply,2
B,M,Deston Yee,AB,80.1,83,Sub-Juniors,,122.5,,122.5,Raw,1
B,M,Rob Rooney,SK,92.4,93,Open,,157.5,,157.5,Raw,1
B,F,Rose Jeffares,AB,131.5,84+,Open,,110,,110,Raw,1
B,F,Jessie Buydens,SK,118.8,84+,Open,,100,,100,Raw,2
B,F,Ashley Viklund,SK,108.2,84+,Open,,80,,80,Raw,3
B,F,Rhaea Stinn,SK,72,72,Open,,110,,110,Raw,1
B,F,Heidi Fowler,SK,82.2,84,Open,,75,,75,Raw,3
B,F,Dana Sandler,AB,83.5,84,Open,,80,,80,Raw,2
B,M,Loc Nguyen,ON,71.5,74,Open,,147.5,,147.5,Raw,1
B,F,Dani Savoie,AB,71.1,72,Open,,95,,95,Raw,1
B,F,Chelsea Sveinbjornson,SK,69.3,72,Open,,80,,80,Raw,2
B,F,Alicia Stajniak,SK,65.6,72,Open,,65,,65,Raw,3
B,F,Miriam Schwabe,ON,61.3,63,Open,,72.5,,72.5,Raw,1
B,F,Jennifer McConnell,ON,56.5,57,Open,,75,,75,Raw,1
B,F,Erin Ashbacher,AB,54.9,57,Open,,72.5,,72.5,Raw,2
B,M,Ryan Stinn,SK,140.7,120+,Open,,200,,200,Raw,1
B,M,John MacDonald,PE,122.8,120+,Open,,180,,180,Raw,3
B,M,Brody Laybolt,AB,120.6,120+,Open,,197.5,,197.5,Raw,2
B,M,Avi Silverberg,AB,115.9,120,Open,,227.5,,227.5,Raw,1
B,M,Shane Martin,AB,103.8,105,Open,,210,,210,Raw,2
B,M,Kohlton Parenteau,SK,103.4,105,Open,,217.5,,217.5,Raw,1
B,M,Brian Desjarlais,SK,80.4,83,Masters 3,,132.5,,132.5,Raw,1
B,M,Wayne Cormier,SK,92.7,93,Masters 2,,132.5,,132.5,Raw,3
B,M,Stephen Flemming,PE,92,93,Masters 2,,135,,135,Raw,1
B,M,Claude Dallaire,QU,90.2,93,Masters 2,,132.5,,132.5,Raw,2
B,M,Brett Zoerb,SK,75.1,83,Masters 2,,110,,110,Raw,1
B,F,Marian Johnston,PE,50.2,52,Masters 2,,37.5,,37.5,Raw,1
B,M,Wally Schoffer,SK,134.3,120+,Masters 2,,160,,160,Raw,1
B,M,Randy Wenzel,SK,99.7,105,Masters 2,,145,,145,Raw,2
B,M,Gordon Sjodin,BC,103.4,105,Masters 2,,155,,155,Raw,1
B,M,Daniel Royer,QU,104.1,105,Masters 2,,105,,105,Raw,3
B,M,Kevin Weiss,BC,91.1,93,Masters 1,,155,,155,Raw,1
B,F,Rhonda Dever,AB,99.6,84+,Masters 1,,72.5,,72.5,Raw,1
B,M,Robert King,NL,82.7,83,Masters 1,,137.5,,137.5,Raw,2
B,M,Bill You,BC,78.7,83,Masters 1,,150,,150,Raw,1
B,F,Angela Desjarlais,SK,70,72,Masters 1,,87.5,,87.5,Raw,1
B,M,John Beres,ON,140.3,120+,Masters 1,,190,,190,Raw,1
B,F,Brittinay Rowland,SK,100.1,84+,Juniors,,77.5,,77.5,Raw,1
B,M,Justin Smith #1,PE,76.6,83,Juniors,,152.5,,152.5,Raw,1
B,F,Kelly Lien,ON,56,57,Juniors,,80,,80,Raw,1
