Place,Name,CyrillicName,Sex,BodyweightKg,Squat1Kg,Squat2Kg,Squat3Kg,Best3SquatKg,Squat4Kg,Bench1Kg,Bench2Kg,Bench3Kg,Best3BenchKg,Bench4Kg,Deadlift1Kg,Deadlift2Kg,Deadlift3Kg,Best3DeadliftKg,Deadlift4Kg,TotalKg,WeightClassKg,Event,Equipment,Division,Age
1,Irina Belousova,Ирина Белоусова,F,46.4,105,110,-117.5,110,,45,-47.5,-47.5,45,,110,-115,,110,,265,48,SBD,Wraps,Tested Amateur Open,39
2,Ella Unashkhotleva,Элла Унашхотлева,F,45.6,-82.5,-82.5,85,85,,40,-45,-45,40,,-82.5,82.5,,82.5,,207.5,48,SBD,Wraps,Tested Amateur Open,33
1,Anna Zhuravleva,Анна Журавлева,F,51.6,-127.5,127.5,135,135,137.5,52.5,55,57.5,57.5,,115,-120,,115,,307.5,52,SBD,Wraps,Tested Amateur Juniors,23
2,Mariya Isaeva,Мария Исаева,F,51.7,92.5,100,-110,100,,42.5,-47.5,-47.5,42.5,,92.5,100,-105,100,,242.5,52,SBD,Wraps,Tested Amateur Juniors,21
DQ,Sofiya Shelestova,София Шелестова,F,50.6,-80,80,90,90,,-45,-45,-45,,,,,,,,,52,SBD,Wraps,Tested Amateur Juniors,23
1,Galina Sakadina,Галина Сакадина,F,51.4,90,-95,-95,90,,40,-50,50,50,,85,95,102.5,102.5,,242.5,52,SBD,Wraps,Tested Amateur Open,29
2,Elmira Zeynalova,Эльмира Зейналова,F,50.8,-80,-80,80,80,,35,37.5,-40,37.5,,80,85,-92.5,85,,202.5,52,SBD,Wraps,Tested Amateur Open,39
DQ,Natalya Kirusheva,Наталья Кирушева,F,51.4,-120,-125,-125,,,,,,,,,,,,,,52,SBD,Wraps,Tested Amateur Open,31
1,Yuliya Zakhozhaya,Юлия Захожая,F,54.9,-110,110,-120,110,,45,-50,-50,45,,107.5,-115,115,115,,270,56,SBD,Wraps,Tested Amateur Open,34
2,Anna Talkieva,Анна Талкиева,F,54.8,100,-110,-110,100,,45,-55,-55,45,,105,110,117.5,117.5,,262.5,56,SBD,Wraps,Tested Amateur Open,27
3,Diana Voronova,Диана Воронова,F,55.4,90,95,-100,95,,57.5,62.5,-65,62.5,,90,100,105,105,,262.5,56,SBD,Wraps,Tested Amateur Open,28
1,Yuliya Baranova,Юлия Баранова,F,59.8,100,110,-120,110,,45,52.5,-57.5,52.5,,100,110,-120,110,,272.5,60,SBD,Wraps,Tested Amateur Juniors,22
1,Mariya Usoltseva,Мария Усольцева,F,59.1,107.5,112.5,117.5,117.5,,-47.5,-50,50,50,,105,115,117.5,117.5,,285,60,SBD,Wraps,Tested Amateur Open,28
2,Tatyana Farrafutdinova,Татьяна Фаррафутдинова,F,59.9,82.5,-90,90,90,,40,-45,-45,40,,-82.5,82.5,,82.5,,212.5,60,SBD,Wraps,Tested Amateur Open,34
1,Elena Emelyova,Елена Емелёва,F,59.5,95,105,,105,,52.5,55,-57.5,55,,115,122.5,-130,122.5,,282.5,60,SBD,Wraps,Tested Amateur Masters 40-49,40
1,Dinara Musaeva,Динара Мусаева,F,73.2,-90,90,100,100,,50,-55,-55,50,,120,125,130,130,,280,75,SBD,Wraps,Tested Amateur Open,36
1,Yulian Strochenkov,Юлиан Строченков,M,67.5,-200,200,-220,200,,115,-120,-120,115,,220,227.5,235,235,-242.5,550,67.5,SBD,Wraps,Tested Amateur Youth 17-19,17
1,Ayk Andriasyan,Айк Андриасян,M,72.7,170,190,200,200,,90,-110,110,110,,150,170,180,180,,490,75,SBD,Wraps,Tested Amateur Youth 14-16,16
1,Anton Biryukov,Антон Бирюков,M,72.5,180,190,197.5,197.5,,95,100,102.5,102.5,,165,175,-185,175,,475,75,SBD,Wraps,Tested Amateur Youth 17-19,19
1,Serob Serobyan,Сероб Серобян,M,74,-145,145,-155,145,,105,110,-117.5,110,,-190,200,210,210,,465,75,SBD,Wraps,Tested Amateur Juniors,21
1,Denis Shishkin,Денис Шишкин,M,74.6,195,210,220,220,,140,150,-155,150,,240,262.5,-275,262.5,,632.5,75,SBD,Wraps,Tested Amateur Open,34
2,Aleksey Sotnikov,Алексей Сотников,M,68.8,180,200,210,210,,125,130,135,135,,200,222.5,230,230,,575,75,SBD,Wraps,Tested Amateur Open,31
3,Sergey Yasnetsov,Сергей Яснецов,M,73.1,190,205,215,215,,115,120,125,125,,215,-220,225,225,,565,75,SBD,Wraps,Tested Amateur Open,35
4,Oleg Stepanov,Олег Степанов,M,74.8,-185,-185,200,200,,107.5,112.5,-117.5,112.5,,220,-235,-242.5,220,,532.5,75,SBD,Wraps,Tested Amateur Open,27
5,Evgeniy Karpov,Евгений Карпов,M,69.7,180,-190,192.5,192.5,,-135,-135,135,135,,180,190,-195,190,,517.5,75,SBD,Wraps,Tested Amateur Open,37
6,Maksim Rumyantsev,Максим Румянцев,M,71.2,170,-190,190,190,,-110,110,-115,110,,185,-200,-200,185,,485,75,SBD,Wraps,Tested Amateur Open,24
DQ,Aleksey Kozinets,Алексей Козинец,M,70.8,162.5,170,177.5,177.5,,115,120,-122.5,120,,-185,-195,-202.5,,,,75,SBD,Wraps,Tested Amateur Open,30
1,Vsevolod Ryabukh,Всеволод Рябух,M,82.1,190,195,-197.5,195,,110,115,117.5,117.5,,220,-225,-225,220,,532.5,82.5,SBD,Wraps,Tested Amateur Youth 17-19,18
1,Artem Gusev,Артем Гусев,M,81.2,200,210,220,220,,120,122.5,-125,122.5,,235,-245,-245,235,,577.5,82.5,SBD,Wraps,Tested Amateur Juniors,23
1,Dmitriy Pleskach,Дмитрий Плескач,M,79.5,220,235,242.5,242.5,,120,130,132.5,132.5,,220,235,242.5,242.5,,617.5,82.5,SBD,Wraps,Tested Amateur Open,28
2,Grigoriy Yudin,Григорий Юдин,M,80.3,220,232.5,242.5,242.5,,135,142.5,147.5,147.5,,180,190,197.5,197.5,,587.5,82.5,SBD,Wraps,Tested Amateur Open,31
3,Artem Gusev,Артем Гусев,M,81.2,200,210,220,220,,120,122.5,-125,122.5,,235,-245,-245,235,,577.5,82.5,SBD,Wraps,Tested Amateur Open,23
4,Vadim Suchkov,Вадим Сучков,M,82.3,185,-200,200,200,,120,125,-130,125,,185,-205,205,205,,530,82.5,SBD,Wraps,Tested Amateur Open,33
5,Leonid Novikov,Леонид Новиков,M,81.8,160,167.5,-170,167.5,,115,-120,-120,115,,195,202.5,,202.5,,485,82.5,SBD,Wraps,Tested Amateur Open,34
DQ,Aleksey Vorotnikov,Алексей Воротников,M,81.9,-210,217.5,225,225,,-130,-130,-130,,,,,,,,,82.5,SBD,Wraps,Tested Amateur Open,36
1,Kirill Kuzin,Кирилл Кузин,M,88.7,235,250,-260,250,,137.5,145,-150,145,,240,255,-260,255,,650,90,SBD,Wraps,Tested Amateur Juniors,21
2,Ruslan Yashin,Руслан Яшин,M,84,190,200,210,210,,125,135,140,140,,200,220,-230,220,,570,90,SBD,Wraps,Tested Amateur Juniors,20
3,Evgeniy Dorofeyskiy,Евгений Дорофейский,M,86.4,-200,200,-212.5,200,,-132.5,132.5,140,140,,220,225,-235,225,,565,90,SBD,Wraps,Tested Amateur Juniors,21
4,Artyom Bezryadin,Артём Безрядин,M,89.3,190,-210,-210,190,,140,147.5,152.5,152.5,,205,210,220,220,,562.5,90,SBD,Wraps,Tested Amateur Juniors,23
1,Aleksey Sheykin,Алексей Шейкин,M,89.9,230,250,,250,,160,170,175,175,,275,285,300,300,,725,90,SBD,Wraps,Tested Amateur Open,29
2,Oleg Fedorets,Олег Федорец,M,89.6,235,242.5,250,250,,165,-172.5,-172.5,165,,260,270,275,275,,690,90,SBD,Wraps,Tested Amateur Open,24
3,Sergey Klyauzov,Сергей Кляузов,M,89.1,240,255,-270,255,,140,-150,-150,140,,240,250,-265,250,,645,90,SBD,Wraps,Tested Amateur Open,27
4,Ivan Kurchin,Иван Курчин,M,86.1,207.5,-212.5,215,215,,130,135,140,140,,210,220,-225,220,,575,90,SBD,Wraps,Tested Amateur Open,27
5,Roman Kazak,Роман Казак,M,89.1,180,190,-200,190,,115,122.5,-127.5,122.5,,-160,160,185,185,,497.5,90,SBD,Wraps,Tested Amateur Open,33
6,Anton Kalinov,Антон Калинов,M,84.2,160,172.5,180,180,,100,107.5,-112.5,107.5,,155,165,170,170,,457.5,90,SBD,Wraps,Tested Amateur Open,25
7,Vitaliy Kuznetsov,Виталий Кузнецов,M,88.4,-160,160,170,170,,105,-112.5,-112.5,105,,170,-187.5,-187.5,170,,445,90,SBD,Wraps,Tested Amateur Open,28
DQ,Andrey Kurilovich,Андрей Курилович,M,88.1,-200,-200,-200,,,,,,,,,,,,,,90,SBD,Wraps,Tested Amateur Open,28
DQ,Oleg Trunov,Олег Трунов,M,89.7,-220,-220,-220,,,,,,,,,,,,,,90,SBD,Wraps,Tested Amateur Open,28
DQ,Aleksey Tushin,Алексей Тушин,M,89.7,-180,-180,-180,,,,,-132.5,,,,,,,,,90,SBD,Wraps,Tested Amateur Masters 50-59,53
1,Evgeniy Misuna,Евгений Мисуна,M,95.3,-180,190,205,205,,95,105,115,115,,-195,205,-210,205,,525,100,SBD,Wraps,Tested Amateur Youth 17-19,17
1,Mikhail Lebedev,Михаил Лебедев,M,93.4,150,157.5,160,160,,90,95,105,105,,165,172.5,180,180,,445,100,SBD,Wraps,Tested Amateur Juniors,21
DQ,Bogdan Vasilev,Богдан Васильев,M,96.3,-280,-280,,,,,,,,,,,,,,,100,SBD,Wraps,Tested Amateur Juniors,22
1,Aleksey Bastrykin,Алексей Бастрыкин,M,94.5,230,245,260,260,,-165,170,-185,170,,230,240,-245,240,,670,100,SBD,Wraps,Tested Amateur Open,26
2,Aleksey Khrabrov,Алексей Храбров,M,99.4,220,235,-250,235,,150,160,165,165,,-230,230,-250,230,,630,100,SBD,Wraps,Tested Amateur Open,27
3,Sergey Frolov,Сергей Фролов,M,99.7,-210,220,-235,220,,155,-162.5,-165,155,,220,-235,-235,220,,595,100,SBD,Wraps,Tested Amateur Open,31
4,Aleksey Proskuryakov,Алексей Проскуряков,M,93.9,195,215,-225,215,,125,135,140,140,,200,215,225,225,,580,100,SBD,Wraps,Tested Amateur Open,32
5,Evgeniy Galiullin,Евгений Галиуллин,M,99.9,-150,150,-160,150,,95,100,-102.5,100,,135,-140,-142.5,135,,385,100,SBD,Wraps,Tested Amateur Open,38
1,Valeriy Bystrov,Валерий Быстров,M,97.8,150,170,-190,170,,100,-105,105,105,,200,205,210,210,,485,100,SBD,Wraps,Tested Amateur Masters 70-79,75
1,Aleksey Zhuravlev,Алексей Журавлев,M,107,-180,-180,180,180,,155,165,-170,165,,175,185,200,200,,545,110,SBD,Wraps,Tested Amateur Juniors,23
1,Artyom Reshetnikov,Артём Решетников,M,108.1,290,,,290,,180,190,-197.5,190,,250,270,,270,,750,110,SBD,Wraps,Tested Amateur Open,27
2,Dmitriy Nenartovich,Дмитрий Ненартович,M,108.1,240,250,255,255,,195,200,-202.5,200,,-247.5,247.5,-255,247.5,,702.5,110,SBD,Wraps,Tested Amateur Open,29
3,Artur Akhmetov,Артур Ахметов,M,106.9,220,240,-250,240,,160,170,-180,170,,220,245,265,265,,675,110,SBD,Wraps,Tested Amateur Open,25
4,Maksim Titkov,Максим Титков,M,105.6,-245,245,-255,245,,150,-155,-165,150,,240,250,-255,250,,645,110,SBD,Wraps,Tested Amateur Open,31
5,David Sichinava,Давид Сичинава,M,106.6,200,205,210,210,,150,155,160,160,,235,250,,250,,620,110,SBD,Wraps,Tested Amateur Open,25
6,Aleksandr Borovkov,Александр Боровков,M,106.8,200,210,-220,210,,150,160,-165,160,,200,220,-240,220,,590,110,SBD,Wraps,Tested Amateur Open,34
1,Dmitriy Zharkov,Дмитрий Жарков,M,102.3,180,190,-200,190,,150,160,165,165,,170,180,190,190,,545,110,SBD,Wraps,Tested Amateur Masters 40-49,47
1,Sergey Golovkov,Сергей Головков,M,120.8,240,260,270,270,,160,170,,170,,260,280,290,290,,730,125,SBD,Wraps,Tested Amateur Open,36
2,Firudin Niftullaev,Фирудин Нифтуллаев,M,111.8,-200,200,-215,200,,180,-187.5,-190,180,,175,190,200,200,,580,125,SBD,Wraps,Tested Amateur Open,28
1,Ilya Savelev,Илья Савельев,M,130.2,220,-230,-230,220,,125,130,-140,130,,230,250,-255,250,,600,140,SBD,Wraps,Tested Amateur Juniors,22
1,Kristina Solovey,Кристина Соловей,F,67.5,140,-155,-155,140,,-60,65,-70,65,,140,150,-160,150,,355,67.5,SBD,Wraps,Amateur Juniors,23
2,Alena Klyueva,Алена Клюева,F,66.7,75,-90,-90,75,,42.5,-47.5,-47.5,42.5,,85,95,-100,95,,212.5,67.5,SBD,Wraps,Amateur Juniors,20
1,Kristina Solovey,Кристина Соловей,F,67.5,140,-155,-155,140,,-60,65,-70,65,,140,150,-160,150,,355,67.5,SBD,Wraps,Amateur Open,23
DQ,Svetlana Okhapkina,Светлана Охапкина,F,63.9,160,170,175,175,,-90,-90,-90,,,,,,,,,67.5,SBD,Wraps,Amateur Open,40
1,Aleksey Serzhuk,Алексей Сержук,M,59.1,-90,90,-100,90,,80,85,-90,85,,110,120,130,130,,305,60,SBD,Wraps,Amateur Open,29
1,Egor Klem,Егор Клем,M,61.5,150,165,-170,165,,100,110,115,115,,180,195,-205,195,,475,67.5,SBD,Wraps,Amateur Youth 17-19,17
1,Aleksandr Rek,Александр Рек,M,66.7,210,222.5,227.5,227.5,,115,120,-122.5,120,,187.5,202.5,207.5,207.5,,555,67.5,SBD,Wraps,Amateur Open,29
1,Daniil Poddubnyy,Даниил Поддубный,M,74,-195,195,210,210,,145,150,-155,150,,-220,230,240,240,,600,75,SBD,Wraps,Amateur Juniors,23
1,Daniil Poddubnyy,Даниил Поддубный,M,74,-195,195,210,210,,145,150,-155,150,,-220,230,240,240,,600,75,SBD,Wraps,Amateur Open,23
1,Gholamhossein Maleki,,M,75,110,125,150,150,,80,90,95,95,,135,140,155,155,,400,75,SBD,Wraps,Amateur Masters 60-69,62
1,Maksim Nurutdinov,Максим Нурутдинов,M,82.5,290,305,310,310,,150,160,165,165,,260,280,290,290,,765,82.5,SBD,Wraps,Amateur Open,34
2,Ruslan Klimov,Руслан Климов,M,82.5,275,-290,-290,275,,185,190,-195,190,,270,290,-300.5,290,,755,82.5,SBD,Wraps,Amateur Open,19
3,Sergey Skoptsov,Сергей Скопцов,M,81.1,-190,190,200,200,,110,-120,125,125,,200,215,225,225,,550,82.5,SBD,Wraps,Amateur Open,30
1,Mahdi Minbashi,,M,87.1,230,250,-255,250,,115,-130,-130,115,,-260,-260,260,260,,625,90,SBD,Wraps,Amateur Youth 17-19,18
DQ,Andrey Bonokin,Андрей Бонокин,M,88.7,240,-255,-260,240,,-135,-135,-135,,,,,,,,,90,SBD,Wraps,Amateur Youth 17-19,19
1,Aleksandr Klimovich,Александр Климович,M,89.1,320,340,-350,340,,175,182.5,-192.5,182.5,,285,302.5,312.5,312.5,,835,90,SBD,Wraps,Amateur Open,37
2,Roman Antonyak,Роман Антоняк,M,88.4,-305,305,-325,305,,190,200,-207.5,200,,305,325,-342.5,325,,830,90,SBD,Wraps,Amateur Open,24
3,Vitaliy Nikolaev,Виталий Николаев,M,87.7,270,290,302.5,302.5,,182.5,192.5,202.5,202.5,,285,302.5,-320,302.5,,807.5,90,SBD,Wraps,Amateur Open,35
4,Aleksey Sheykin,Алексей Шейкин,M,89.9,250,,,250,,175,,,175,,300,,,300,,725,90,SBD,Wraps,Amateur Open,29
5,Sergey Saranskiy,Сергей Саранский,M,89.5,250,275,290,290,,160,167.5,-172.5,167.5,,240,250,,250,,707.5,90,SBD,Wraps,Amateur Open,38
6,Andrey Bubin,Андрей Бубин,M,89.3,275,285,-292.5,285,,160,-165,-165,160,,260,-270,-270,260,,705,90,SBD,Wraps,Amateur Open,35
7,Sergey Starov,Сергей Старов,M,86.6,-240,-240,240,240,,160,170,,170,,250,270,-280,270,,680,90,SBD,Wraps,Amateur Open,31
8,Aleksey Podvolokin,Алексей Подволокин,M,89.7,250,-265,270,270,,145,150,-155,150,,-250,260,-275,260,,680,90,SBD,Wraps,Amateur Open,25
9,Nikolay Fedoseev,Николай Федосеев,M,87.4,215,225,235,235,,145,155,-160,155,,215,-225,235,235,,625,90,SBD,Wraps,Amateur Open,26
10,Dmitriy Melikhov,Дмитрий Мелихов,M,89.9,200,212.5,225,225,,140,147.5,150,150,,225,232.5,240,240,,615,90,SBD,Wraps,Amateur Open,37
11,Aleksandr Kozlov,Александр Козлов,M,88.9,-200,200,210,210,,-115,115,125,125,,240,260,272.5,272.5,,607.5,90,SBD,Wraps,Amateur Open,22
12,Stanislav Yarukov,Станислав Яруков,M,89.8,190,-205,-210,190,,120,130,-140,130,,220,240,-260,240,,560,90,SBD,Wraps,Amateur Open,26
DQ,Evgeniy Shatlovskiy,Евгений Шатловский,M,89.5,200,-220,-220,200,,-160,-160,-160,,,,,,,,,90,SBD,Wraps,Amateur Open,42
DQ,Evgeniy Shatlovskiy,Евгений Шатловский,M,89.5,200,-220,-220,200,,-160,-160,-160,,,,,,,,,90,SBD,Wraps,Amateur Masters 40-49,42
1,Konstantin Dremenkov,Константин Дременков,M,84.5,210,225,240,240,,150,-160,160,160,,255,267.5,-275,267.5,,667.5,90,SBD,Wraps,Amateur Masters 50-59,50
1,Maksim Prokhorov,Максим Прохоров,M,97.3,205,215,-225,215,,145,-160,-160,145,,-200,210,225,225,,585,100,SBD,Wraps,Amateur Youth 17-19,19
1,Bogdan Vasilev,Богдан Васильев,M,96.4,-260,260,270,270,,180,187.5,195,195,,310,320,-325,320,,785,100,SBD,Wraps,Amateur Juniors,22
1,Sergey Akhlestin,Сергей Ахлестин,M,100,315,330,-340,330,,180,190,192.5,192.5,,320,335,350,350,,872.5,100,SBD,Wraps,Amateur Open,27
2,Aleksandr Denisov,Александр Денисов,M,98.7,330,350,-370,350,,190,200,-210,200,,300,320,-340,320,,870,100,SBD,Wraps,Amateur Open,24
3,Aleksandr Ryashchikov,Александр Рящиков,M,98.3,310,330,-345,330,,195,202.5,-205,202.5,,300,312.5,-315,312.5,,845,100,SBD,Wraps,Amateur Open,33
4,Andrey Ulashchik,Андрей Улащик,M,95.2,270,290,-300,290,,190,-200,-200,190,,-310,325,340,340,,820,100,SBD,Wraps,Amateur Open,33
5,Aleksey Zinurov,Алексей Зинуров,M,97.6,280,-300,300,300,,190,200,-210,200,,260,280,300,300,,800,100,SBD,Wraps,Amateur Open,29
6,Aleksey Gruzin,Алексей Грузин,M,98.7,285,-305,-305,285,,180,-190,-190,180,,-295,295,-300,295,,760,100,SBD,Wraps,Amateur Open,33
7,Pavel Lelikov,Павел Леликов,M,93.3,262.5,280,-300,280,,160,170,175,175,,250,270,-300,270,,725,100,SBD,Wraps,Amateur Open,26
8,Vadim Nikitin,Вадим Никитин,M,97.7,270,-290,-290,270,,180,-190,190,190,,260,-275,-275,260,,720,100,SBD,Wraps,Amateur Open,27
9,Dmitriy Ryakhovskiy,Дмитрий Ряховский,M,99.7,240,270,300,300,,170,-180,-180,170,,250,-270,,250,,720,100,SBD,Wraps,Amateur Open,27
10,Ilya Ershov,Илья Ершов,M,99.5,250,-260,262.5,262.5,,167.5,175,-180,175,,-250,250,,250,,687.5,100,SBD,Wraps,Amateur Open,28
11,Vladimir Oleksenko,Владимир Олексенко,M,95.3,-240,240,260,260,,160,170,-177.5,170,,240,-250,250,250,,680,100,SBD,Wraps,Amateur Open,45
12,Aleksandr Shmonin,Александр Шмонин,M,98.4,245,260,270,270,,-150,150,-160,150,,235,245,255,255,,675,100,SBD,Wraps,Amateur Open,30
13,Evgeniy Drobotov,Евгений Дроботов,M,93.4,220,240,250,250,,150,160,-165,160,,210,230,-240,230,,640,100,SBD,Wraps,Amateur Open,29
14,Pavel Popov,Павел Попов,M,96.4,180,-200,-200,180,,-120,-120,120,120,,190,200,210,210,,510,100,SBD,Wraps,Amateur Open,26
1,Igor Chupryakov,Игорь Чупряков,M,97.2,240,255,-262.5,255,,177.5,185,-187.5,185,,245,262.5,,262.5,,702.5,100,SBD,Wraps,Amateur Masters 40-49,41
2,Vladimir Oleksenko,Владимир Олексенко,M,95.3,-240,240,260,260,,160,170,-177.5,170,,240,-250,250,250,,680,100,SBD,Wraps,Amateur Masters 40-49,45
1,Yuriy Pletyukhov,Юрий Плетюхов,M,99,180,-195,195,195,,110,120,125,125,,195,210,222.5,222.5,,542.5,100,SBD,Wraps,Amateur Masters 60-69,61
1,Mikhail Anokhin,Михаил Анохин,M,107.3,230,240,250,250,,140,150,157.5,157.5,,230,252.5,-262.5,252.5,,660,110,SBD,Wraps,Amateur Youth 17-19,19
1,Roman Pokhvatko,Роман Похватько,M,105.9,300,310,320,320,,175,-185,185,185,,300,315,325,325,,830,110,SBD,Wraps,Amateur Juniors,22
1,Valeriy Shumbasov,Валерий Шумбасов,M,109.5,350,-370,-370,350,,200,-210,220,220,,330,350,362.5,362.5,,932.5,110,SBD,Wraps,Amateur Open,35
2,Aleksey Kashirin,Алексей Каширин,M,109.4,-310,310,330,330,,190,202.5,210,210,,-310,310,325,325,,865,110,SBD,Wraps,Amateur Open,43
3,Roman Pokhvatko,Роман Похватько,M,105.9,300,310,320,320,,175,-185,185,185,,300,315,325,325,,830,110,SBD,Wraps,Amateur Open,22
4,Andrey Vorivodin,Андрей Вориводин,M,101.4,330,-340,-340,330,,185,192.5,-195,192.5,,280,292.5,-300,292.5,,815,110,SBD,Wraps,Amateur Open,27
5,Roman Zavrazhin,Роман Завражин,M,108.3,-275,275,-285,275,,-200,210,-215,210,,270,280,290,290,,775,110,SBD,Wraps,Amateur Open,26
6,Ildar Yagudin,Ильдар Ягудин,M,105.4,265,-270,270,270,,155,165,175,175,,-265,275,-285,275,,720,110,SBD,Wraps,Amateur Open,24
7,Aleksandr Kozhevnikov,Александр Кожевников,M,108.5,-240,250,-260,250,,180,185,190,190,,240,-250,-260,240,,680,110,SBD,Wraps,Amateur Open,24
8,Dmitriy Zaplavskiy,Дмитрий Заплавский,M,109.1,-200,200,215,215,,135,142.5,155,155,,235,-247.5,-260,235,,605,110,SBD,Wraps,Amateur Open,32
DQ,Daniel Martinez,,M,105.7,-350,-350,-350,,,,,,,,,,,,,,110,SBD,Wraps,Amateur Open,42
DQ,Vasiliy Shishov,Василий Шишов,M,108.4,-220,-220,,,,,,,,,,,,,,,110,SBD,Wraps,Amateur Open,33
DQ,Seyed Sadri,,M,108.8,240,-260,270,270,,-140,160,,160,,,,,,,,110,SBD,Wraps,Amateur Open,32
DQ,Daniel Martinez,,M,105.7,-350,-350,-350,,,,,,,,,,,,,,110,SBD,Wraps,Amateur Masters 40-49,42
1,Viktor Vodovskov,Виктор Водовсков,M,116.5,330,350,370,370,,160,-170,170,170,,315,-330,330,330,,870,125,SBD,Wraps,Amateur Open,34
2,Anar Omarov,Анар Омаров,M,118,245,-265,280,280,,190,200,-210,200,,255,265,-272.5,265,,745,125,SBD,Wraps,Amateur Open,31
DQ,Sergey Ustinov,Сергей Устинов,M,123.8,300,320,340,340,,-185,-192.5,-192.5,,,-280,-280,,,,,125,SBD,Wraps,Amateur Open,29
1,Aleksandr Romanov,Александр Романов,M,114.4,190,200,-210,200,,-170,175,180,180,,210,225,240,240,,620,125,SBD,Wraps,Amateur Masters 40-49,44
1,Ivan Niculescu,,M,135.7,245,265,280,280,,190,-205,205,205,,260,280,-300,280,,765,140,SBD,Wraps,Amateur Juniors,21
1,Anton Solovey,Антон Соловей,M,129.2,330,350,370,370,,200,212.5,222.5,222.5,,300,320,340,340,,932.5,140,SBD,Wraps,Amateur Open,24
2,Roland Hegedüs,,M,129.6,270,-295,-300,270,,170,190,200,200,,275,295,300,300,,770,140,SBD,Wraps,Amateur Open,30
1,Sergey Odegov,Сергей Одегов,M,141.2,330,350,370,370,,220,235,-240,235,,330,350,365,365,,970,140+,SBD,Wraps,Amateur Open,40
2,Aleksey Kotov,Алексей Котов,M,140.4,310,330,342.5,342.5,,205,212.5,217.5,217.5,,290,310,320,320,,880,140+,SBD,Wraps,Amateur Open,37
3,Denis Shtokolov,Денис Штоколов,M,140.4,280,300,-320,300,,180,190,200,200,,280,300,-320,300,,800,140+,SBD,Wraps,Amateur Open,38
1,Sofiya Shelestova,София Шелестова,F,50.6,,,,,,-40,-40,40,40,,80,90,95,95,,135,52,BD,Raw,Tested Amateur Juniors,23
1,Yuliya Nenartovich,Юлия Ненартович,F,50.5,,,,,,50,55,-57.5,55,,100,-110,-110,100,,155,52,BD,Raw,Tested Amateur Open,29
1,Kristina Dobrya,Кристина Добря,F,55.7,,,,,,60,-62.5,-62.5,60,,140,-145,,140,,200,56,BD,Raw,Tested Amateur Open,28
2,Marina Latukhina,Марина Латухина,F,53.6,,,,,,55,60,-62.5,60,,107.5,115,-117.5,115,,175,56,BD,Raw,Tested Amateur Open,32
1,Bozhena Pinkovskaya,Божена Пиньковская,F,58.6,,,,,,50,55,-57.5,55,,125,135,140,140,,195,60,BD,Raw,Tested Amateur Juniors,22
1,Elena Emelyova,Елена Емелёва,F,59.5,,,,,,52.5,55,-57.5,55,,115,122.5,-130,122.5,,177.5,60,BD,Raw,Tested Amateur Masters 40-49,40
1,Mariya Chuprina,Мария Чуприна,F,60.3,,,,,,50,-55,-55,50,,100,107.5,110,110,,160,67.5,BD,Raw,Tested Amateur Juniors,23
1,Aleksandr Tolstosheev,Александр Толстошеев,M,66.5,,,,,,80,85,87.5,87.5,,150,170,185,185,,272.5,67.5,BD,Raw,Tested Amateur Masters 40-49,41
1,Oleg Stepanov,Олег Степанов,M,74.8,,,,,,107.5,112.5,-117.5,112.5,,220,-235,-242.5,220,,332.5,75,BD,Raw,Tested Amateur Open,27
2,Anton Khristolyubov,Антон Христолюбов,M,74.9,,,,,,100,-105,105,105,,170,-187.5,-187.5,170,,275,75,BD,Raw,Tested Amateur Open,24
DQ,Aleksey Kozinets,Алексей Козинец,M,70.8,,,,,,115,120,-122.5,120,,-185,-195,-202.5,,,,75,BD,Raw,Tested Amateur Open,30
1,Igor Pashkov,Игорь Пашков,M,81.4,,,,,,130,135,-137.5,135,,230,235,240,240,,375,82.5,BD,Raw,Tested Amateur Open,30
1,Vitaliy Tyunyaev,Виталий Тюняев,M,81.6,,,,,,-130,-130,130,130,,200,215,230,230,,360,82.5,BD,Raw,Tested Amateur Masters 40-49,40
1,Aleksey Sheykin,Алексей Шейкин,M,89.9,,,,,,160,170,175,175,,275,285,300,300,,475,90,BD,Raw,Tested Amateur Open,29
2,Robert Akhmetshin,Роберт Ахметшин,M,87.5,,,,,,125,-132.5,-132.5,125,,210,-225,-230,210,,335,90,BD,Raw,Tested Amateur Open,39
DQ,Oleg Trunov,Олег Трунов,M,89.7,,,,,,-170,-170,-170,,,,,,,,,90,BD,Raw,Tested Amateur Open,28
1,Aleksey Tushin,Алексей Тушин,M,89.7,,,,,,120,-127.5,-132.5,120,,190,-205,-205,190,,310,90,BD,Raw,Tested Amateur Masters 50-59,53
DQ,Anton Kraynikov,Антон Крайников,M,96.4,,,,,,-130,-130,-130,,,,,,,,,100,BD,Raw,Tested Amateur Open,27
1,Zhomart Ospanov,Жомарт Оспанов,M,108.5,,,,,,110,-122.5,-122.5,110,,205,,,205,,315,110,BD,Raw,Tested Amateur Juniors,20
1,Dmitriy Zharkov,Дмитрий Жарков,M,102.3,,,,,,150,160,165,165,,170,180,190,190,,355,110,BD,Raw,Tested Amateur Masters 40-49,47
1,Ivan Regulyarnyy,Иван Регулярный,M,121.2,,,,,,195,202.5,-207.5,202.5,,275,295,-302.5,295,,497.5,125,BD,Raw,Tested Amateur Open,32
2,Sergey Oleynikov,Сергей Олейников,M,120.2,,,,,,185,195,197.5,197.5,,230,250,270,270,,467.5,125,BD,Raw,Tested Amateur Open,35
1,Elena Parovatkina,Елена Пароваткина,F,55,,,,,,52.5,57.5,60,60,,125,130,-137.5,130,,190,56,BD,Raw,Amateur Open,25
1,Davit Khambabyan,Давит Хамбабян,M,74.7,,,,,,135,-140,-140,135,,130,140,150,150,,285,75,BD,Raw,Amateur Open,27
1,Sergey Fomin,Сергей Фомин,M,81,,,,,,-172.5,172.5,-180,172.5,,275,287.5,-292.5,287.5,,460,82.5,BD,Raw,Amateur Open,34
2,Igor Pashkov,Игорь Пашков,M,81.4,,,,,,130,135,-137.5,135,,230,235,240,240,,375,82.5,BD,Raw,Amateur Open,30
1,Miras Bakytzhanov,Мирас Бакытжанов,M,90,,,,,,150,155,-160,155,,210,220,230,230,,385,90,BD,Raw,Amateur Juniors,21
1,Aleksey Sheykin,Алексей Шейкин,M,89.9,,,,,,160,170,175,175,,275,285,300,300,,475,90,BD,Raw,Amateur Open,29
1,Konstantin Dremenkov,Константин Дременков,M,84.5,,,,,,150,-160,160,160,,255,267.5,-275,267.5,,427.5,90,BD,Raw,Amateur Masters 50-59,50
1,Andrey Ulashchik,Андрей Улащик,M,95.2,,,,,,190,-200,-200,190,,-310,325,340,340,,530,100,BD,Raw,Amateur Open,33
2,Maksim Medvedev,Максим Медведев,M,100,,,,,,200,207.5,-215,207.5,,280,300,-320,300,,507.5,100,BD,Raw,Amateur Open,36
3,Maksim Popov,Максим Попов,M,91.6,,,,,,180,-185,,180,,280,290,-300,290,,470,100,BD,Raw,Amateur Open,26
1,Sergey Ukhanov,Сергей Уханов,M,98.2,,,,,,190,-195,195,195,,240,255,-270,255,,450,100,BD,Raw,Amateur Masters 40-49,43
1,Evgeniy Loktev,Евгений Локтев,M,96.4,,,,,,120,125,130,130,,-210,220,225,225,,355,100,BD,Raw,Amateur Masters 60-69,60
1,Ilya Linnikov,Илья Линников,M,109.5,,,,,,220,230,235,235,,300,320,330,330,,565,110,BD,Raw,Amateur Open,35
1,Igor Pyzhyanov,Игорь Пыжьянов,M,105.3,,,,,,105,112.5,117.5,117.5,,200,212.5,217.5,217.5,,335,110,BD,Raw,Amateur Masters 40-49,44
1,Viktor Stefantsov,Виктор Стефанцов,M,111.2,,,,,,-160,160,170,170,,200,220,-240,220,,390,125,BD,Raw,Amateur Open,32
1,Aleksandr Alekseev,Александр Алексеев,M,125.9,,,,,,215,-225,-225,215,,340,360,-370,360,,575,140,BD,Raw,Amateur Open,36
1,Nadezhda Mochalova,Надежда Мочалова,F,34.9,,,,,,22.5,25,-27.5,25,,,,,,,25,44,B,Raw,Tested Amateur Girls,10
1,Alina Melnikova,Алина Мельникова,F,47.5,,,,,,55,-60,60,60,,,,,,,60,48,B,Raw,Tested Amateur Girls,19
1,Olesya Yureva,Олеся Юрьева,F,47.4,,,,,,45,52.5,-55,52.5,,,,,,,52.5,48,B,Raw,Tested Amateur Open,37
1,Ekaterina Kudryavtseva,Екатерина Кудрявцева,F,52,,,,,,57.5,60,-62.5,60,,,,,,,60,52,B,Raw,Tested Amateur Juniors,23
2,Anna Zotova,Анна Зотова,F,51.2,,,,,,45,-47.5,-47.5,45,,,,,,,45,52,B,Raw,Tested Amateur Juniors,23
1,Albina Popkova,Альбина Попкова,F,51.7,,,,,,65,-67.5,70,70,,,,,,,70,52,B,Raw,Tested Amateur Open,27
2,Elena Larina,Елена Ларина,F,51.4,,,,,,42.5,45,47.5,47.5,,,,,,,47.5,52,B,Raw,Tested Amateur Open,27
1,Elena Diss,Елена Дисс,F,51.5,,,,,,57.5,62.5,65,65,,,,,,,65,52,B,Raw,Tested Amateur Masters 40-49,45
1,Marina Latukhina,Марина Латухина,F,53.6,,,,,,55,60,-62.5,60,,,,,,,60,56,B,Raw,Tested Amateur Open,32
2,Mariya Polivkina,Мария Поливкина,F,54.7,,,,,,50,-55,-55,50,,,,,,,50,56,B,Raw,Tested Amateur Open,30
1,Mariya Pyshinskaya,Мария Пышинская,F,57.9,,,,,,-62.5,-62.5,62.5,62.5,,,,,,,62.5,60,B,Raw,Tested Amateur Girls,19
1,Ekaterina Dudareva,Екатерина Дударева,F,59.7,,,,,,80,82.5,-85,82.5,,,,,,,82.5,60,B,Raw,Tested Amateur Juniors,23
1,Ekaterina Dudareva,Екатерина Дударева,F,59.7,,,,,,80,82.5,-85,82.5,,,,,,,82.5,60,B,Raw,Tested Amateur Open,23
2,Viktoriya Khramtsova,Виктория Храмцова,F,59.6,,,,,,-55,60,-65,60,,,,,,,60,60,B,Raw,Tested Amateur Open,35
3,Evgeniya Alekseeva,Евгения Алексеева,F,59.8,,,,,,60,-62.5,-62.5,60,,,,,,,60,60,B,Raw,Tested Amateur Open,30
4,Valentina Bryndina,Валентина Брындина,F,59.1,,,,,,-55,55,57.5,57.5,,,,,,,57.5,60,B,Raw,Tested Amateur Open,36
5,Larisa Pshenichnikova,Лариса Пшеничникова,F,56.2,,,,,,42.5,-47.5,-47.5,42.5,,,,,,,42.5,60,B,Raw,Tested Amateur Open,28
6,Diana Yagodka,Диана Ягодка,F,56.4,,,,,,40,-42.5,-42.5,40,,,,,,,40,60,B,Raw,Tested Amateur Open,25
1,Irina Ivakina,Ирина Ивакина,F,65.8,,,,,,55,60,-65,60,,,,,,,60,67.5,B,Raw,Tested Amateur Open,30
1,Zarifa Kozlan,Зарифа Козлан,F,61,,,,,,45,50,52.5,52.5,,,,,,,52.5,67.5,B,Raw,Tested Amateur Masters 60-69,65
1,Alina Drobysh,Алина Дробыш,F,73.7,,,,,,60,65,-70,65,,,,,,,65,75,B,Raw,Tested Amateur Open,26
2,Anna Shpyntova,Анна Шпынтова,F,73.4,,,,,,50,55,-57.5,55,,,,,,,55,75,B,Raw,Tested Amateur Open,25
1,Daniil Kachalko,Даниил Качалко,M,55.3,,,,,,80,90,-102.5,90,,,,,,,90,56,B,Raw,Tested Amateur Youth 14-16,16
1,Aleksandr Vlasov,Александр Власов,M,58.4,,,,,,110,120,-127.5,120,,,,,,,120,60,B,Raw,Tested Amateur Open,45
1,Aleksandr Vlasov,Александр Власов,M,58.4,,,,,,110,120,-127.5,120,,,,,,,120,60,B,Raw,Tested Amateur Masters 40-49,45
1,Sergey Salosalov,Сергей Салосалов,M,64.9,,,,,,-85,87.5,90,90,,,,,,,90,67.5,B,Raw,Tested Amateur Youth 14-16,12
2,Ivan Grebenshchikov,Иван Гребенщиков,M,61.7,,,,,,40,45,47.5,47.5,,,,,,,47.5,67.5,B,Raw,Tested Amateur Youth 14-16,14
1,Vasiliy Arnaut,Василий Арнаут,M,73.5,,,,,,-117.5,-117.5,117.5,117.5,,,,,,,117.5,75,B,Raw,Tested Amateur Youth 17-19,19
1,Evgeniy Barkovskiy,Евгений Барковский,M,74.8,,,,,,-135,135,-137.5,135,,,,,,,135,75,B,Raw,Tested Amateur Open,28
2,Mikhail Solntsev,Михаил Солнцев,M,74.4,,,,,,117.5,125,-130,125,,,,,,,125,75,B,Raw,Tested Amateur Open,25
3,Ilya Belyaev,Илья Беляев,M,71.5,,,,,,100,105,107.5,107.5,,,,,,,107.5,75,B,Raw,Tested Amateur Open,27
1,Aleksandr Balyasnikov,Александр Балясников,M,80,,,,,,145,150,155,155,,,,,,,155,82.5,B,Raw,Tested Amateur Juniors,23
1,Evgeniy Voloskiy,Евгений Волоский,M,81.8,,,,,,180,200,202.5,202.5,205,,,,,,202.5,82.5,B,Raw,Tested Amateur Open,29
2,Dmitriy Saprykin,Дмитрий Сапрыкин,M,81.8,,,,,,157.5,162.5,-167.5,162.5,,,,,,,162.5,82.5,B,Raw,Tested Amateur Open,27
3,Aleksandr Balyasnikov,Александр Балясников,M,80,,,,,,145,150,155,155,,,,,,,155,82.5,B,Raw,Tested Amateur Open,23
4,Valeriy Malik,Валерий Малик,M,82.2,,,,,,145,-155,-155,145,,,,,,,145,82.5,B,Raw,Tested Amateur Open,26
5,Andrey Skoryatin,Андрей Скорятин,M,81.3,,,,,,137.5,142.5,-145,142.5,,,,,,,142.5,82.5,B,Raw,Tested Amateur Open,24
6,Roman Shuvalov,Роман Шувалов,M,75.7,,,,,,135,140,-142.5,140,,,,,,,140,82.5,B,Raw,Tested Amateur Open,35
7,Aleksey Fokin,Алексей Фокин,M,80.6,,,,,,120,127.5,-135,127.5,,,,,,,127.5,82.5,B,Raw,Tested Amateur Open,35
8,Anton Volkov,Антон Волков,M,81.6,,,,,,120,127.5,-135,127.5,,,,,,,127.5,82.5,B,Raw,Tested Amateur Open,25
9,Vladimir Serbin,Владимир Сербин,M,81.3,,,,,,97.5,-105,105,105,,,,,,,105,82.5,B,Raw,Tested Amateur Open,26
1,Igor Kovalev,Игорь Ковалев,M,77.2,,,,,,135,140,-145,140,,,,,,,140,82.5,B,Raw,Tested Amateur Masters 60-69,60
2,Sergey Gopko,Сергей Гопко,M,79.5,,,,,,130,135,137.5,137.5,,,,,,,137.5,82.5,B,Raw,Tested Amateur Masters 60-69,60
1,Sergey Malyshev,Сергей Малышев,M,89.3,,,,,,145,155,160,160,,,,,,,160,90,B,Raw,Tested Amateur Youth 17-19,17
1,Stanislav Rotkin,Станислав Роткин,M,90,,,,,,170,175,177.5,177.5,,,,,,,177.5,90,B,Raw,Tested Amateur Juniors,23
2,Maksim Ershov,Максим Ершов,M,89,,,,,,155,165,-175,165,,,,,,,165,90,B,Raw,Tested Amateur Juniors,23
3,Andrey Roshchupkin,Андрей Рощупкин,M,88,,,,,,150,-160,-160,150,,,,,,,150,90,B,Raw,Tested Amateur Juniors,22
1,Andrey Svidin,Андрей Свидин,M,88.6,,,,,,180,190,-200,190,,,,,,,190,90,B,Raw,Tested Amateur Open,37
2,Kirill Mikhaylov,Кирилл Михайлов,M,84.6,,,,,,155,157.5,160,160,,,,,,,160,90,B,Raw,Tested Amateur Open,30
3,Dmitriy Volobuev,Дмитрий Волобуев,M,87.7,,,,,,147.5,-155,155,155,,,,,,,155,90,B,Raw,Tested Amateur Open,28
4,Evgeniy Mazur,Евгений Мазур,M,85.4,,,,,,-152.5,-152.5,152.5,152.5,,,,,,,152.5,90,B,Raw,Tested Amateur Open,26
5,Ramil Shafigullin,Рамиль Шафигуллин,M,87.9,,,,,,-147.5,150,-152.5,150,,,,,,,150,90,B,Raw,Tested Amateur Open,30
6,Aleksey Yashonkov,Алексей Яшонков,M,87.7,,,,,,140,145,-150,145,,,,,,,145,90,B,Raw,Tested Amateur Open,24
7,Ilya Logunov,Илья Логунов,M,88.1,,,,,,130,135,-140,135,,,,,,,135,90,B,Raw,Tested Amateur Open,27
8,Denis Kosov,Денис Косов,M,85.5,,,,,,127.5,132.5,-135,132.5,,,,,,,132.5,90,B,Raw,Tested Amateur Open,32
9,Artem Chelakhov,Артем Челахов,M,88,,,,,,-127.5,132.5,-135,132.5,,,,,,,132.5,90,B,Raw,Tested Amateur Open,33
10,Vladimir Kuzin,Владимир Кузин,M,89.5,,,,,,125,130,-132.5,130,,,,,,,130,90,B,Raw,Tested Amateur Open,31
DQ,Dmitriy Bragin,Дмитрий Брагин,M,87.6,,,,,,-120,-132.5,,,,,,,,,,90,B,Raw,Tested Amateur Open,35
DQ,Fedor Morzhikov,Федор Моржиков,M,89.3,,,,,,-152.5,-152.5,-152.5,,,,,,,,,90,B,Raw,Tested Amateur Open,37
DQ,Ramil Vektemirov,Рамиль Вектемиров,M,90,,,,,,-180,-180,,,,,,,,,,90,B,Raw,Tested Amateur Open,29
1,Aleksandr Tyulenev,Александр Тюленев,M,89.5,,,,,,150,155,160,160,,,,,,,160,90,B,Raw,Tested Amateur Masters 40-49,48
2,Pavel Zhirnov,Павел Жирнов,M,87.4,,,,,,140,-150,-150,140,,,,,,,140,90,B,Raw,Tested Amateur Masters 40-49,46
3,Andrey Nikitin,Андрей Никитин,M,87.9,,,,,,105,-110,-110,105,,,,,,,105,90,B,Raw,Tested Amateur Masters 40-49,45
1,Anatoliy Pavlenko,Анатолий Павленко,M,89.5,,,,,,110,-115,-115,110,,,,,,,110,90,B,Raw,Tested Amateur Masters 60-69,66
1,David Matevosyan,Давид Матевосян,M,98.7,,,,,,-200,205,210.5,210.5,,,,,,,210,100,B,Raw,Tested Amateur Juniors,20
1,Andrey Makarkin,Андрей Макаркин,M,99.3,,,,,,185,-190,-190,185,,,,,,,185,100,B,Raw,Tested Amateur Open,37
2,Leonid Pavlov,Леонид Павлов,M,97.7,,,,,,162.5,172.5,175,175,,,,,,,175,100,B,Raw,Tested Amateur Open,33
3,Aleksey Bastrykin,Алексей Бастрыкин,M,94.5,,,,,,-165,170,-185,170,,,,,,,170,100,B,Raw,Tested Amateur Open,26
4,Vladislav Akopyan,Владислав Акопян,M,98.3,,,,,,155,162.5,165,165,,,,,,,165,100,B,Raw,Tested Amateur Open,32
5,Oleg Strizhkov,Олег Стрижков,M,96.2,,,,,,140,162.5,-170,162.5,,,,,,,162.5,100,B,Raw,Tested Amateur Open,35
6,Sergey Frolov,Сергей Фролов,M,99.7,,,,,,155,-162.5,-165,155,,,,,,,155,100,B,Raw,Tested Amateur Open,31
7,Sergey Gruzdev,Сергей Груздев,M,97.3,,,,,,140,-145,-145,140,,,,,,,140,100,B,Raw,Tested Amateur Open,37
8,Artem Khabarov,Артем Хабаров,M,97.7,,,,,,130,140,-150,140,,,,,,,140,100,B,Raw,Tested Amateur Open,28
9,Oleg Starostin,Олег Старостин,M,95.5,,,,,,107.5,112.5,-115,112.5,,,,,,,112.5,100,B,Raw,Tested Amateur Open,33
1,Ismail Shakhbanov,Исмаил Шахбанов,M,98.3,,,,,,170,177.5,182.5,182.5,,,,,,,182.5,100,B,Raw,Tested Amateur Masters 40-49,45
1,Dmitriy Ivanov,Дмитрий Иванов,M,101.6,,,,,,180,192.5,200.5,200.5,,,,,,,200,110,B,Raw,Tested Amateur Juniors,23
2,Egor Perov,Егор Перов,M,109.7,,,,,,155,162.5,167.5,167.5,,,,,,,167.5,110,B,Raw,Tested Amateur Juniors,22
3,Konstantin Valerov,Константин Валеров,M,100.3,,,,,,125,-132.5,-140,125,,,,,,,125,110,B,Raw,Tested Amateur Juniors,22
1,Andris Kibilds,Андрис Кибилдс,M,110,,,,,,192.5,-197.5,202.5,202.5,,,,,,,202.5,110,B,Raw,Tested Amateur Open,33
2,Dmitriy Nenartovich,Дмитрий Ненартович,M,108.1,,,,,,195,200,-202.5,200,,,,,,,200,110,B,Raw,Tested Amateur Open,29
3,Sergey Baranov,Сергей Баранов,M,107.2,,,,,,177.5,187.5,-195,187.5,,,,,,,187.5,110,B,Raw,Tested Amateur Open,34
4,Roman Razumovskiy,Роман Разумовский,M,106,,,,,,167.5,-172.5,172.5,172.5,,,,,,,172.5,110,B,Raw,Tested Amateur Open,28
5,Grigoriy Tochenyy,Григорий Точеный,M,108.5,,,,,,155,162.5,-170,162.5,,,,,,,162.5,110,B,Raw,Tested Amateur Open,24
1,Aleksandr Zhuravlev,Александр Журавлев,M,108.5,,,,,,170,172.5,175,175,,,,,,,175,110,B,Raw,Tested Amateur Masters 40-49,44
2,Ruslan Kataev,Руслан Катаев,M,105.4,,,,,,160,167.5,-170,167.5,,,,,,,167.5,110,B,Raw,Tested Amateur Masters 40-49,48
3,Dmitriy Zharkov,Дмитрий Жарков,M,102.3,,,,,,150,160,165,165,,,,,,,165,110,B,Raw,Tested Amateur Masters 40-49,47
4,Roman Maksimov,Роман Максимов,M,107.7,,,,,,160,-170,-172.5,160,,,,,,,160,110,B,Raw,Tested Amateur Masters 40-49,47
DQ,Aleksey Nepryakhin,Алексей Непряхин,M,108.2,,,,,,-165,-165,,,,,,,,,,110,B,Raw,Tested Amateur Masters 40-49,42
1,Andrey Skorobogatko,Андрей Скоробогатько,M,109.4,,,,,,145,155,160,160,,,,,,,160,110,B,Raw,Tested Amateur Masters 50-59,54
1,Artem Vorontsov,Артем Воронцов,M,111.3,,,,,,200,205,210,210,,,,,,,210,125,B,Raw,Tested Amateur Open,40
2,Ruslan Murashko,Руслан Мурашко,M,114.3,,,,,,-205,205,-207.5,205,,,,,,,205,125,B,Raw,Tested Amateur Open,42
3,Ivan Regulyarnyy,Иван Регулярный,M,121.2,,,,,,195,202.5,-207.5,202.5,,,,,,,202.5,125,B,Raw,Tested Amateur Open,32
4,Aleksey Gavshin,Алексей Гавшин,M,120.4,,,,,,175,182.5,-187.5,182.5,,,,,,,182.5,125,B,Raw,Tested Amateur Open,38
1,Artem Vorontsov,Артем Воронцов,M,111.3,,,,,,200,205,210,210,,,,,,,210,125,B,Raw,Tested Amateur Masters 40-49,40
2,Ruslan Murashko,Руслан Мурашко,M,114.3,,,,,,-205,205,-207.5,205,,,,,,,205,125,B,Raw,Tested Amateur Masters 40-49,42
1,Vladimir Chubarov,Владимир Чубаров,M,124.5,,,,,,167.5,172.5,177.5,177.5,,,,,,,177.5,125,B,Raw,Tested Amateur Masters 50-59,53
1,Ivan Serzhantov,Иван Сержантов,M,135.2,,,,,,220,230,-240,230,,,,,,,230,140,B,Raw,Tested Amateur Juniors,21
1,Maksim Sheremetev,Максим Шереметьев,M,159.8,,,,,,210,215,-222.5,215,,,,,,,215,140+,B,Raw,Tested Amateur Juniors,22
1,Sergey Dorofeev,Сергей Дорофеев,M,150,,,,,,190,-200,-200,190,,,,,,,190,140+,B,Raw,Tested Amateur Open,33
1,Sergey Lazarev,Сергей Лазарев,M,153.7,,,,,,140,150,-155,150,,,,,,,150,140+,B,Raw,Tested Amateur Masters 50-59,57
1,Viktoriya Vasileva,Виктория Васильева,F,54.9,,,,,,65,-72.5,72.5,72.5,,,,,,,72.5,56,B,Raw,Amateur Open,26
1,Nadezhda Vlasova,Надежда Власова,F,66.1,,,,,,110,115,-117.5,115,,,,,,,115,67.5,B,Raw,Amateur Open,35
1,Veronika Shendrik,Вероника Шендрик,F,70.9,,,,,,75,80,-82.5,80,,,,,,,80,75,B,Raw,Amateur Open,23
1,Artem Danelyants,Артем Данельянц,M,73.5,,,,,,140,145,150,150,-155,,,,,,150,75,B,Raw,Amateur Juniors,23
1,Artur Belous,Артур Белоус,M,74.8,,,,,,207.5,212.5,-215,212.5,,,,,,,212.5,75,B,Raw,Amateur Open,32
2,Nikolay Masnukha,Николай Маснуха,M,74.9,,,,,,150,155,160,160,,,,,,,160,75,B,Raw,Amateur Open,34
3,Dmitriy Volkov,Дмитрий Волков,M,74.1,,,,,,-140,145,-155,145,,,,,,,145,75,B,Raw,Amateur Open,35
4,Nikolay Petrokovich,Николай Петрокович,M,74.6,,,,,,110,120,130,130,,,,,,,130,75,B,Raw,Amateur Open,37
1,Ivan Zotov,Иван Зотов,M,81.7,,,,,,140,145,150,150,,,,,,,150,82.5,B,Raw,Amateur Juniors,23
1,Dmitriy Yanevich,Дмитрий Яневич,M,82.5,,,,,,192.5,-197.5,-197.5,192.5,,,,,,,192.5,82.5,B,Raw,Amateur Open,43
2,Andrey Isaev,Андрей Исаев,M,82.4,,,,,,160,167.5,-172.5,167.5,,,,,,,167.5,82.5,B,Raw,Amateur Open,25
3,Artyom Vereshchagin,Артём Верещагин,M,81.9,,,,,,-165,165,-170,165,,,,,,,165,82.5,B,Raw,Amateur Open,28
4,Oleg Suslov,Олег Суслов,M,81.9,,,,,,-150,150,-160,150,,,,,,,150,82.5,B,Raw,Amateur Open,25
5,Petr Suchkov,Петр Сучков,M,82.1,,,,,,135,142.5,147.5,147.5,,,,,,,147.5,82.5,B,Raw,Amateur Open,33
1,Dmitriy Yanevich,Дмитрий Яневич,M,82.5,,,,,,192.5,-197.5,-197.5,192.5,,,,,,,192.5,82.5,B,Raw,Amateur Masters 40-49,43
2,Igor Polivanov,Игорь Поливанов,M,80.5,,,,,,152.5,157.5,-162.5,157.5,,,,,,,157.5,82.5,B,Raw,Amateur Masters 40-49,42
1,Erfan Rezajouei,,M,88.6,,,,,,90,-100,-105,90,,,,,,,90,90,B,Raw,Amateur Youth 17-19,17
1,Vyacheslav Letlyans,Вячеслав Летлянс,M,88.4,,,,,,227.5,232.5,235,235,-238,,,,,,235,90,B,Raw,Amateur Open,30
2,Valeriy Porimon,Валерий Поримон,M,86.4,,,,,,215,225,-227.5,225,,,,,,,225,90,B,Raw,Amateur Open,31
3,Aleksey Prokudin,Алексей Прокудин,M,88.3,,,,,,225,-230,-230,225,,,,,,,225,90,B,Raw,Amateur Open,35
4,Vladimir Aliev,Владимир Алиев,M,88.4,,,,,,-190,190,-195,190,,,,,,,190,90,B,Raw,Amateur Open,25
5,Roman Dagaev,Роман Дагаев,M,88.2,,,,,,170,180,-185,180,,,,,,,180,90,B,Raw,Amateur Open,36
1,Igor Khorkhordin,Игорь Хорхордин,M,89.2,,,,,,155,162.5,167.5,167.5,,,,,,,167.5,90,B,Raw,Amateur Masters 40-49,49
2,Yuriy Marenkov,Юрий Маренков,M,89.7,,,,,,125,135,-142.5,135,,,,,,,135,90,B,Raw,Amateur Masters 40-49,40
DQ,Sergey Bugakov,Сергей Бугаков,M,90,,,,,,-165,-172.5,-172.5,,,,,,,,,90,B,Raw,Amateur Masters 40-49,41
1,Rustam Begerin,Рустам Бегерин,M,97,,,,,,,202.5,210,210,,,,,,,210,100,B,Raw,Amateur Juniors,22
2,Dmitriy Propletkin,Дмитрий Проплеткин,M,94.2,,,,,,160,165,170,170,,,,,,,170,100,B,Raw,Amateur Juniors,23
1,Anton Mandziy,,M,98,,,,,,235,-245,-245,235,,,,,,,235,100,B,Raw,Amateur Open,30
2,Maksim Medvedev,Максим Медведев,M,100,,,,,,210,-212.5,,210,,,,,,,210,100,B,Raw,Amateur Open,36
3,Dmitriy Efimov,Дмитрий Ефимов,M,95.2,,,,,,170,180,-185,180,,,,,,,180,100,B,Raw,Amateur Open,29
4,Ararat Karapetyan,Арарат Карапетян,M,97.1,,,,,,180,-190,-190,180,,,,,,,180,100,B,Raw,Amateur Open,38
5,Yuriy Aleynikov,Юрий Алейников,M,95.5,,,,,,160,165,-170,165,,,,,,,165,100,B,Raw,Amateur Open,31
6,Sergey Gorishnin,Сергей Горишнин,M,95.6,,,,,,-155,155,-160,155,,,,,,,155,100,B,Raw,Amateur Open,34
DQ,Aleksandr Kozhevin,Александр Кожевин,M,99.7,,,,,,-207.5,-207.5,-207.5,,,,,,,,,100,B,Raw,Amateur Open,38
1,Sergey Ukhanov,Сергей Уханов,M,98.2,,,,,,190,-195,195,195,,,,,,,195,100,B,Raw,Amateur Masters 40-49,43
2,Konstantin Fridrikh,Константин Фридрих,M,99.7,,,,,,185,190,-200,190,,,,,,,190,100,B,Raw,Amateur Masters 40-49,47
1,Aleksey Shatilo,Алексей Шатило,M,109.4,,,,,,250,-260,-260,250,,,,,,,250,110,B,Raw,Amateur Open,31
2,Aleksey Markelov,Алексей Маркелов,M,109.9,,,,,,225,-232.5,-235,225,,,,,,,225,110,B,Raw,Amateur Open,33
3,Evgeniy Bondarev,Евгений Бондарев,M,104.7,,,,,,220,,,220,,,,,,,220,110,B,Raw,Amateur Open,31
4,Nikolay Pilipishko,Николай Пилипишко,M,106.8,,,,,,190,205,210,210,,,,,,,210,110,B,Raw,Amateur Open,33
5,Artem Golovin,Артем Головин,M,107.4,,,,,,200,210,-222.5,210,,,,,,,210,110,B,Raw,Amateur Open,39
6,Akhmed Musaev,Ахмед Мусаев,M,104.7,,,,,,190,200,202.5,202.5,,,,,,,202.5,110,B,Raw,Amateur Open,36
7,Sergey Kolganov,Сергей Колганов,M,108.2,,,,,,190,197.5,-205,197.5,,,,,,,197.5,110,B,Raw,Amateur Open,38
8,Ilya Grechina,Илья Гречина,M,105,,,,,,-180,180,185,185,,,,,,,185,110,B,Raw,Amateur Open,26
9,Kirill Nikolaev,Кирилл Николаев,M,107.4,,,,,,185,-197.5,-197.5,185,,,,,,,185,110,B,Raw,Amateur Open,36
10,Oleg Taranov,Олег Таранов,M,106,,,,,,175,-197.5,-197.5,175,,,,,,,175,110,B,Raw,Amateur Open,25
1,Eduard Dmitriev,Эдуард Дмитриев,M,109,,,,,,212.5,-217.5,-217.5,212.5,,,,,,,212.5,110,B,Raw,Amateur Masters 40-49,45
2,Aleksandr Prozorov,Александр Прозоров,M,105.6,,,,,,190,197.5,-202.5,197.5,,,,,,,197.5,110,B,Raw,Amateur Masters 40-49,43
DQ,Roman Maksimov,Роман Максимов,M,107.7,,,,,,-160,,,,,,,,,,,110,B,Raw,Amateur Masters 40-49,47
1,Evgeniy Arapov,Евгений Арапов,M,109,,,,,,220,230,-232.5,230,,,,,,,230,110,B,Raw,Amateur Masters 50-59,54
2,Aleksandr Makey,Александр Макей,M,105.9,,,,,,190,197.5,-200,197.5,,,,,,,197.5,110,B,Raw,Amateur Masters 50-59,53
1,Ivan Zaytsev,Иван Зайцев,M,121.8,,,,,,180,190,-195,190,,,,,,,190,125,B,Raw,Amateur Youth 17-19,19
1,Aleksandr Ivanov,Александр Иванов,M,125,,,,,,180,190,-200,190,,,,,,,190,125,B,Raw,Amateur Juniors,23
1,Maksim Silaev,Максим Силаев,M,122.2,,,,,,225,230,235,235,,,,,,,235,125,B,Raw,Amateur Open,48
2,Ivan Milakov,Иван Милаков,M,119.6,,,,,,-180,180,190,190,,,,,,,190,125,B,Raw,Amateur Open,32
1,Maksim Silaev,Максим Силаев,M,122.2,,,,,,225,230,235,235,,,,,,,235,125,B,Raw,Amateur Masters 40-49,48
2,Igor Lomov,Игорь Ломов,M,121.8,,,,,,210,220,225,225,,,,,,,225,125,B,Raw,Amateur Masters 40-49,46
3,Leonid Palshin,Леонид Пальшин,M,123.6,,,,,,190,-200,,190,,,,,,,190,125,B,Raw,Amateur Masters 40-49,47
1,Mikhail Adamenko,Михаил Адаменко,M,125.1,,,,,,245,-250,252.5,252.5,,,,,,,252.5,140,B,Raw,Amateur Open,37
2,Milan Treskavica,,M,136.7,,,,,,-220,240,-250,240,,,,,,,240,140,B,Raw,Amateur Open,25
1,Eva Merzon,Ева Мерзон,F,49.4,,,,,,25,30,40,40,,,,,,,40,52,B,Raw,Amateur Open,25
1,Kirill Dmitriev,Кирилл Дмитриев,M,57.8,,,,,,90,95,100,100,,,,,,,100,60,B,Raw,Amateur Open,36
1,Niyas Izmaylov,Нияс Измайлов,M,64.9,,,,,,90,97.5,102.5,102.5,,,,,,,102.5,67.5,B,Raw,Amateur Open,30
1,Salemi Mohammadrezaa,,M,68.1,,,,,,-25,25,40,40,,,,,,,40,75,B,Raw,Masters 60-69 Amateur,62
1,Andrey Shibanov,Андрей Шибанов,M,88.2,,,,,,140,155,167.5,167.5,,,,,,,167.5,90,B,Raw,Amateur Masters 40-49,41
1,Konstantin Makarenko,Константин Макаренко,M,94.6,,,,,,112.5,117.5,122.5,122.5,,,,,,,122.5,100,B,Raw,Amateur Masters 40-49,44
1,Yuriy Tishkov,Юрий Тишков,M,102.3,,,,,,120,130,-135,130,,,,,,,130,110,B,Raw,Amateur Masters 40-49,41
1,Darya Praslova,Дарья Праслова,F,46.3,,,,,,,,,,,82.5,87.5,92.5,92.5,,92.5,48,D,Raw,Tested Amateur Juniors,21
1,Karina Ivanova,Карина Иванова,F,47.5,,,,,,,,,,,82.5,-92.5,92.5,92.5,,92.5,48,D,Raw,Tested Amateur Open,33
1,Anastasiya Koltsova,Анастасия Кольцова,F,50.2,,,,,,,,,,,60,70,75,75,,75,52,D,Raw,Tested Amateur Juniors,23
1,Irina Shafigullina,Ирина Шафигуллина,F,50.4,,,,,,,,,,,132.5,137.5,-140,137.5,,137.5,52,D,Raw,Tested Amateur Open,31
2,Natalya Kirusheva,Наталья Кирушева,F,51.4,,,,,,,,,,,115,-127.5,-127.5,115,,115,52,D,Raw,Tested Amateur Open,31
1,Kristina Dobrya,Кристина Добря,F,55.7,,,,,,,,,,,140,-145,,140,,140,56,D,Raw,Tested Amateur Open,28
2,Nataliya Fatina,Наталия Фатина,F,54.8,,,,,,,,,,,100,105,-122.5,105,,105,56,D,Raw,Tested Amateur Open,26
3,Alesya Goncharova,Алеся Гончарова,F,55,,,,,,,,,,,90,95,100,100,,100,56,D,Raw,Tested Amateur Open,25
4,Mariya Gadzhizade,Мария Гаджизаде,F,54.3,,,,,,,,,,,97.5,-105,-105,97.5,,97.5,56,D,Raw,Tested Amateur Open,24
DQ,Anna Egorova,Анна Егорова,F,55.7,,,,,,,,,,,-90,-90,-90,,,,56,D,Raw,Tested Amateur Open,32
1,Elena Emelyova,Елена Емелёва,F,59.5,,,,,,,,,,,115,122.5,-130,122.5,,122.5,60,D,Raw,Tested Amateur Open,40
1,Elena Emelyova,Елена Емелёва,F,59.5,,,,,,,,,,,115,122.5,-130,122.5,,122.5,60,D,Raw,Tested Amateur Masters 40-49,40
1,Olga Olkhovskaya,Ольга Ольховская,F,65.3,,,,,,,,,,,145,152.5,157.5,157.5,,157.5,67.5,D,Raw,Tested Amateur Open,38
2,Olga Organyuk,Ольга Органюк,F,66.3,,,,,,,,,,,125,-135,-135,125,,125,67.5,D,Raw,Tested Amateur Open,34
3,Inna Prokopeva,Инна Прокопьева,F,60.7,,,,,,,,,,,110,117.5,122.5,122.5,,122.5,67.5,D,Raw,Tested Amateur Open,35
4,Anastasiya Galkina,Анастасия Галкина,F,66.5,,,,,,,,,,,105,117.5,-122.5,117.5,,117.5,67.5,D,Raw,Tested Amateur Open,28
DQ,Natalya Mukhomor,Наталья Мухомор,F,61.1,,,,,,,,,,,-90,-90,,,,,67.5,D,Raw,Tested Amateur Open,32
1,Zarifa Kozlan,Зарифа Козлан,F,61,,,,,,,,,,,90,100,105,105,,105,67.5,D,Raw,Tested Amateur Masters 60-69,65
1,Yulian Strochenkov,Юлиан Строченков,M,67.5,,,,,,,,,,,220,227.5,235,235,-242.5,235,67.5,D,Raw,Tested Amateur Youth 17-19,17
2,Artem Voloshin,Артем Волошин,M,62.7,,,,,,,,,,,130,150,160,160,,160,67.5,D,Raw,Tested Amateur Youth 17-19,18
1,Aleksandr Buychenko,Александр Буйченко,M,66.5,,,,,,,,,,,210,220,-227.5,220,,220,67.5,D,Raw,Tested Amateur Open,35
1,Grigoriy Uchitel,Григорий Учитель,M,73.2,,,,,,,,,,,150,-170,170,170,,170,75,D,Raw,Tested Amateur Youth 17-19,19
1,Denis Shishkin,Денис Шишкин,M,74.6,,,,,,,,,,,240,262.5,-275,262.5,,262.5,75,D,Raw,Tested Amateur Open,34
2,Timur Baymukhanov,Тимур Баймуханов,M,74.6,,,,,,,,,,,230,242.5,,242.5,,242.5,75,D,Raw,Tested Amateur Open,24
3,Aleksey Stepanets,Алексей Степанец,M,73.9,,,,,,,,,,,230,-240,-240,230,,230,75,D,Raw,Tested Amateur Open,25
4,Oleg Stepanov,Олег Степанов,M,74.8,,,,,,,,,,,220,-235,-242.5,220,,220,75,D,Raw,Tested Amateur Open,27
5,Ilya Belyaev,Илья Беляев,M,71.5,,,,,,,,,,,150,160,167.5,167.5,,167.5,75,D,Raw,Tested Amateur Open,27
1,Artem Gusev,Артем Гусев,M,81.2,,,,,,,,,,,235,-245,-245,235,,235,82.5,D,Raw,Tested Amateur Juniors,23
2,Sergey Pogudin,Сергей Погудин,M,80.7,,,,,,,,,,,-195,202.5,-210,202.5,,202.5,82.5,D,Raw,Tested Amateur Juniors,22
1,Evgeniy Gorshkov,Евгений Горшков,M,76.9,,,,,,,,,,,260,270,280,280,,280,82.5,D,Raw,Tested Amateur Open,35
2,Sergey Stotik,Сергей Стотик,M,82.3,,,,,,,,,,,235,242.5,245,245,,245,82.5,D,Raw,Tested Amateur Open,27
3,Igor Pashkov,Игорь Пашков,M,81.4,,,,,,,,,,,230,235,240,240,,240,82.5,D,Raw,Tested Amateur Open,30
4,Maksim Titov,Максим Титов,M,80.9,,,,,,,,,,,215,-225,-225,215,,215,82.5,D,Raw,Tested Amateur Open,25
5,Aleksey Vorotnikov,Алексей Воротников,M,81.9,,,,,,,,,,,215,-227.5,-227.5,215,,215,82.5,D,Raw,Tested Amateur Open,36
6,Sergey Loshchev,Сергей Лощев,M,78.3,,,,,,,,,,,140,150,162.5,162.5,,162.5,82.5,D,Raw,Tested Amateur Open,31
1,Vladimir Zhukov,Владимир Жуков,M,82.3,,,,,,,,,,,205,225,235,235,,235,82.5,D,Raw,Tested Amateur Masters 40-49,46
1,Nazariy Kulyk,Назарий Кулык,M,89.6,,,,,,,,,,,235,250,260,260,,260,90,D,Raw,Tested Amateur Juniors,20
2,Aleksey Svirin,Алексей Свирин,M,88.4,,,,,,,,,,,225,235,-245,235,,235,90,D,Raw,Tested Amateur Juniors,22
1,Aleksey Sheykin,Алексей Шейкин,M,89.9,,,,,,,,,,,275,285,300,300,,300,90,D,Raw,Tested Amateur Open,29
2,Aleksey Boyarintsev,Алексей Бояринцев,M,88.6,,,,,,,,,,,280,290,-300,290,,290,90,D,Raw,Tested Amateur Open,28
3,Oleg Osipov,Олег Осипов,M,86.5,,,,,,,,,,,275,285,-295,285,,285,90,D,Raw,Tested Amateur Open,30
4,Oleg Fedorets,Олег Федорец,M,89.6,,,,,,,,,,,260,270,275,275,,275,90,D,Raw,Tested Amateur Open,24
5,Andrey Kurilovich,Андрей Курилович,M,88.1,,,,,,,,,,,230,240,245,245,,245,90,D,Raw,Tested Amateur Open,28
6,Dmitriy Motaylo,Дмитрий Мотайло,M,90,,,,,,,,,,,220,225,232.5,232.5,,232.5,90,D,Raw,Tested Amateur Open,31
1,Eldar Salakhetdinov,Эльдар Салахетдинов,M,92.9,,,,,,,,,,,250,260,270,270,,270,100,D,Raw,Tested Amateur Youth 17-19,18
2,Aleksandr Zhurzhov,Александр Журжов,M,97.6,,,,,,,,,,,215,-225,-225,215,,215,100,D,Raw,Tested Amateur Youth 17-19,18
DQ,Nikolay Esayan,Николай Есаян,M,94,,,,,,,,,,,-200,-200,,,,,100,D,Raw,Tested Amateur Juniors,22
1,Ruslan Timurziev,Руслан Тимурзиев,M,97.2,,,,,,,,,,,230,262.5,-272.5,262.5,,262.5,100,D,Raw,Tested Amateur Open,32
2,Aleksandr Zhurzhov,Александр Журжов,M,97.6,,,,,,,,,,,215,-225,-225,215,,215,100,D,Raw,Tested Amateur Open,18
1,Vasiliy Dovgoborets,Василий Довгоборец,M,102.7,,,,,,,,,,,270,280,,280,,280,110,D,Raw,Tested Amateur Open,27
2,Artyom Reshetnikov,Артём Решетников,M,108.1,,,,,,,,,,,250,270,,270,,270,110,D,Raw,Tested Amateur Open,27
3,David Sichinava,Давид Сичинава,M,106.6,,,,,,,,,,,235,250,,250,,250,110,D,Raw,Tested Amateur Open,25
4,Evgeniy Paukov,Евгений Пауков,M,107.2,,,,,,,,,,,160,180,200,200,,200,110,D,Raw,Tested Amateur Open,37
1,Dmitriy Zharkov,Дмитрий Жарков,M,102.3,,,,,,,,,,,170,180,190,190,,190,110,D,Raw,Tested Amateur Masters 40-49,47
1,Ivan Regulyarnyy,Иван Регулярный,M,121.2,,,,,,,,,,,275,295,-302.5,295,,295,125,D,Raw,Tested Amateur Open,32
2,Aleksey Ilichev,Алексей Ильичев,M,116.6,,,,,,,,,,,225,240,250,250,,250,125,D,Raw,Tested Amateur Open,32
1,Svetlana Limushkina,Светлана Лимушкина,F,58.8,,,,,,,,,,,130,-135,-135,130,,130,60,D,Raw,Amateur Open,38
1,Svetlana Okhapkina,Светлана Охапкина,F,63.9,,,,,,,,,,,190,,,190,,190,67.5,D,Raw,Amateur Open,40
2,Natalya Mukhomor,Наталья Мухомор,F,61.4,,,,,,,,,,,90,100,105,105,110,105,67.5,D,Raw,Amateur Open,32
1,Pavel Eliseev,Павел Елисеев,M,74.8,,,,,,,,,,,240,255,265,265,,265,75,D,Raw,Amateur Open,31
2,Egor Filatov,Егор Филатов,M,72.8,,,,,,,,,,,160,165,172.5,172.5,,172.5,75,D,Raw,Amateur Open,24
DQ,Davit Khambabyan,Давит Хамбабян,M,74.7,,,,,,,,,,,-200,-200,,,,,75,D,Raw,Amateur Open,27
1,Daniil Nemov,Даниил Немов,M,79.1,,,,,,,,,,,-270,-270,270,270,,270,82.5,D,Raw,Amateur Open,19
2,Igor Pashkov,Игорь Пашков,M,81.4,,,,,,,,,,,230,235,240,240,,240,82.5,D,Raw,Amateur Open,30
3,Vahid Salemi,,M,80.5,,,,,,,,,,,215,230,-235,230,,230,82.5,D,Raw,Amateur Open,38
4,Nikita Malov,Никита Малов,M,81.6,,,,,,,,,,,-185,-195,195,195,,195,82.5,D,Raw,Amateur Open,24
1,Aleksandr Likholay,Александр Лихолай,M,75.4,,,,,,,,,,,-110,110,-115,110,,110,82.5,D,Raw,Amateur Masters 70-79,78
1,Andrey Bonokin,Андрей Бонокин,M,88.7,,,,,,,,,,,200,225,-240,225,,225,90,D,Raw,Amateur Youth 17-19,19
2,Erfan Rezajouei,,M,88.6,,,,,,,,,,,-130,130,150,150,,150,90,D,Raw,Amateur Youth 17-19,17
1,Vladimir Babin,Владимир Бабин,M,88.5,,,,,,,,,,,-345,355,-370,355,,355,90,D,Raw,Amateur Open,24
2,Ilya Fedorov,Илья Федоров,M,89.7,,,,,,,,,,,340,-350,-350,340,,340,90,D,Raw,Amateur Open,24
3,Aleksey Sheykin,Алексей Шейкин,M,89.9,,,,,,,,,,,275,285,300,300,,300,90,D,Raw,Amateur Open,29
1,Evgeniy Shatlovskiy,Евгений Шатловский,M,89.5,,,,,,,,,,,220,250,-270,250,,250,90,D,Raw,Amateur Masters 40-49,42
1,Konstantin Dremenkov,Константин Дременков,M,84.5,,,,,,,,,,,255,267.5,-275,267.5,,267.5,90,D,Raw,Amateur Masters 50-59,50
1,Aleksandr Kravtsevich,Александр Кравцевич,M,95.3,,,,,,,,,,,265,275,-283,275,,275,100,D,Raw,Amateur Youth 17-19,18
1,Emil Aliev,Эмиль Алиев,M,95.1,,,,,,,,,,,300,-312.5,-312.5,300,,300,100,D,Raw,Amateur Juniors,20
2,Maksim Karpovich,Максим Карпович,M,99.7,,,,,,,,,,,-300,300,-310,300,,300,100,D,Raw,Amateur Juniors,23
DQ,Nikolay Esayan,Николай Есаян,M,94,,,,,,,,,,,-200,-200,-200,,,,100,D,Raw,Amateur Juniors,22
1,Evgeniy Kravchenko,Евгений Кравченко,M,96.6,,,,,,,,,,,350,370,-380,370,,370,100,D,Raw,Amateur Open,30
2,Andrey Ulashchik,Андрей Улащик,M,95.2,,,,,,,,,,,-310,325,340,340,,340,100,D,Raw,Amateur Open,33
3,Aleksandr Kodis,Александр Кодис,M,99.7,,,,,,,,,,,310,325,335,335,-341,335,100,D,Raw,Amateur Open,29
4,Emil Aliev,Эмиль Алиев,M,95.1,,,,,,,,,,,300,-312.5,-312.5,300,,300,100,D,Raw,Amateur Open,20
5,Maksim Medvedev,Максим Медведев,M,100,,,,,,,,,,,280,300,-320,300,,300,100,D,Raw,Amateur Open,36
DQ,Anatoliy Kovalev,Анатолий Ковалев,M,93.4,,,,,,,,,,,-250,-270,-282.5,,,,100,D,Raw,Amateur Open,25
1,Sergey Ukhanov,Сергей Уханов,M,98.2,,,,,,,,,,,240,255,-270,255,,255,100,D,Raw,Amateur Masters 40-49,43
1,Mikhail Verbitskiy,Михаил Вербицкий,M,91.6,,,,,,,,,,,270,285,,285,,285,100,D,Raw,Amateur Masters 60-69,65
1,Badiei Hassan,,M,107.4,,,,,,,,,,,240,260,270,270,,270,110,D,Raw,Amateur Juniors,22
2,Ilya Mikishin,Илья Микишин,M,105.9,,,,,,,,,,,260,-290,-290,260,,260,110,D,Raw,Amateur Juniors,20
1,Daniel Martinez,,M,105.7,,,,,,,,,,,300,325,335,335,,335,110,D,Raw,Amateur Open,42
2,Sergey Muravyov,Сергей Муравьёв,M,109.2,,,,,,,,,,,300,315,325,325,,325,110,D,Raw,Amateur Open,41
3,Andrey Burachkovskiy,Андрей Бурачковский,M,105,,,,,,,,,,,-245,270,285,285,,285,110,D,Raw,Amateur Open,32
4,Artur Panasyuk,Артур Панасюк,M,106.2,,,,,,,,,,,222.5,252.5,260,260,,260,110,D,Raw,Amateur Open,30
5,Sayed Sadri,,M,110,,,,,,,,,,,-230,230,260,260,,260,110,D,Raw,Amateur Open,32
1,Sergey Muravyov,Сергей Муравьёв,M,109.2,,,,,,,,,,,300,315,325,325,,325,110,D,Raw,Amateur Masters 40-49,41
1,Dmitriy Shnurov,Дмитрий Шнуров,M,123.6,,,,,,,,,,,280,300,,300,,300,125,D,Raw,Amateur Open,36
DQ,Vladimir Marchenko,Владимир Марченко,M,122.2,,,,,,,,,,,-345,-345,,,,,125,D,Raw,Amateur Open,39
1,Artur Duruev,Артур Дуруев,M,137.1,,,,,,,,,,,285,300,-310,300,,300,140,D,Raw,Amateur Juniors,22
1,Aleksandr Alekseev,Александр Алексеев,M,125.9,,,,,,,,,,,340,360,-370,360,,360,140,D,Raw,Amateur Open,36
1,Valeriy Shumbasov,Валерий Шумбасов,M,109.5,350,-370,-370,350,,200,-210,220,220,,330,350,362.5,362.5,,932.5,110,SBD,Wraps,Pro Open,35
1,Stanislav Shvetsov,Станислав Швецов,M,120.4,380,400,,400,,230,240,245,245,-250,-320,-320,-320,,320,645,125,SBD,Wraps,Pro Open,29
1,Ivan Podrez,Іван Подрез,M,182.3,420,440,450,450,,210,220,,220,,340,365,-380,365,-380,1035,140+,SBD,Wraps,Pro Open,25
2,Sergey Odegov,Сергей Одегов,M,141.2,330,350,370,370,,220,235,-240,235,,330,350,365,365,,970,140+,SBD,Wraps,Pro Open,40
3,Filipp Obukhov,Филипп Обухов,M,165.9,390,410,-430,410,,210,220,230,230,-240,300,320,-340,320,-340,960,140+,SBD,Wraps,Pro Open,23
1,Andrey Sapozhonkov,Андрей Сапожонков,M,82.4,,,,,,240,245,247.5,247.5,-253,,,,,,247.5,82.5,B,Raw,Pro Open,29
1,Aleksey Drozdov,Алексей Дроздов,M,89.8,,,,,,232.5,242.5,-245,242.5,-245,,,,,,242.5,90,B,Raw,Pro Open,28
2,Evgeniy Beloval,Евгений Беловал,M,87.6,,,,,,230,237.5,240,240,-242.5,,,,,,240,90,B,Raw,Pro Open,25
1,Stanislav Schastnyy,Станислав Счастный,M,107.4,,,,,,255,260,-265,260,-265,,,,,,260,110,B,Raw,Pro Open,23
2,Dmitriy Dyakonov,Дмитрий Дьяконов,M,104,,,,,,250,255,-260,255,-260,,,,,,255,110,B,Raw,Pro Open,28
1,Murad Alibegov,Мурад Алибегов,M,124.2,,,,,,250,270,290,290,,,,,,,290,125,B,Raw,Pro Open,40
2,Dan Green,,M,120.3,,,,,,230,240,-250,240,-250,,,,,,240,125,B,Raw,Pro Open,34
1,Pavel Klimov,Павел Климов,M,138.2,,,,,,260,270,-275,270,-275,,,,,,270,140,B,Raw,Pro Open,26
1,Vladislav Solovev,Владислав Соловьев,M,159.5,,,,,,255,265,272.5,272.5,-280,,,,,,272.5,140+,B,Raw,Pro Open,30
1,Dmitry Nasonov,Дмитрий Насонов,M,80.4,,,,,,,,,,,-340,350,370,370,380,370,82.5,D,Raw,Pro Open,25
1,Vladimir Babin,Владимир Бабин,M,88.5,,,,,,,,,,,-345,355,-370,355,,355,90,D,Raw,Pro Open,24
2,Ilya Fedorov,Илья Федоров,M,89.7,,,,,,,,,,,340,-350,-350,340,,340,90,D,Raw,Pro Open,34
1,Evgeniy Kravchenko,Евгений Кравченко,M,96.6,,,,,,,,,,,350,370,-380,370,,370,100,D,Raw,Pro Open,30
2,Anton Ilyasov,Антон Илясов,M,93.2,,,,,,,,,,,330,-340,340,340,-350,340,100,D,Raw,Pro Open,28
3,Andrey Ulashchik,Андрей Улащик,M,95.2,,,,,,,,,,,-310,325,340,340,,340,100,D,Raw,Pro Open,33
DQ,Yury Belkin,Юрий Белкин,M,98.7,,,,,,,,,,,-390,-390,-390,,,,100,D,Raw,Pro Open,26
1,Konstantin Morozov,Константин Морозов,M,109,,,,,,,,,,,390,400,-405,400,,400,110,D,Raw,Pro Open,32
1,Andreev Stoyan,Андреев Стоян,M,116,,,,,,,,,,,380,395,-402.5,395,-402.5,395,125,D,Raw,Pro Open,38
2,Sergey Daragan,Сергей Дараган,M,121.4,,,,,,,,,,,355,380,-390,380,,380,125,D,Raw,Pro Open,38
1,Vladimir Marchenko,Владимир Марченко,M,126.4,,,,,,,,,,,350,365,372.5,372.5,,372.5,140,D,Raw,Pro Open,32
2,Oleg Livshits,Олег Лившиц,M,136.3,,,,,,,,,,,350,365,-370,365,,365,140,D,Raw,Pro Open,43
3,Maksim Baruzdin,Максим Баруздин,M,127.9,,,,,,,,,,,340,360,-375,360,-375,360,140,D,Raw,Pro Open,35
1,Ivan Podrez,Іван Подрез,M,182.3,,,,,,,,,,,370,400,-425,400,-425,400,140+,D,Raw,Pro Open,25
